35 0.138889 0.228261 0.092593 0.326087
16 0.234568 0.260870 0.086420 0.304348
1 0.413580 0.375000 0.061728 0.293478
3 0.503086 0.423913 0.080247 0.304348
8 0.592593 0.467391 0.086420 0.304348
2 0.688272 0.527174 0.092593 0.315217
10 0.805556 0.603261 0.092593 0.315217
11 0.907407 0.646739 0.098765 0.336957
