5 0.218421 0.343750 0.126316 0.280357
9 0.363816 0.343750 0.130263 0.280357
23 0.642105 0.344643 0.142105 0.303571
1 0.773026 0.348214 0.090789 0.303571
7 0.101316 0.661607 0.134211 0.291071
4 0.284211 0.665179 0.136842 0.287500
4 0.853289 0.679464 0.132895 0.276786
8 0.463816 0.665179 0.132895 0.287500
6 0.681579 0.674107 0.142105 0.280357
