5 0.273684 0.289286 0.134211 0.353571
1 0.397368 0.278571 0.094737 0.350000
35 0.656579 0.266964 0.139474 0.351786
7 0.791447 0.255357 0.117105 0.339286
4 0.290789 0.696429 0.113158 0.335714
3 0.627632 0.674107 0.121053 0.319643
3 0.796711 0.666071 0.130263 0.339286
5 0.451316 0.683929 0.139474 0.339286
