4 0.282237 0.290179 0.127632 0.323214
4 0.337500 0.663393 0.103947 0.323214
4 0.475000 0.666964 0.115789 0.330357
21 0.632895 0.305357 0.121053 0.350000
1 0.761184 0.318750 0.082895 0.323214
0 0.184211 0.637500 0.131579 0.317857
5 0.669737 0.681250 0.121053 0.333929
6 0.817105 0.697321 0.113158 0.323214
9 0.411842 0.291964 0.110526 0.308929
