5 0.256579 0.267857 0.105263 0.350000
1 0.369737 0.268750 0.097368 0.326786
1 0.240789 0.645536 0.084211 0.326786
20 0.601316 0.278571 0.102632 0.342857
6 0.723684 0.283036 0.102632 0.319643
3 0.402632 0.650000 0.102632 0.310714
9 0.568421 0.656250 0.094737 0.301786
2 0.719079 0.661607 0.103947 0.319643
