5 0.263158 0.256250 0.118421 0.330357
2 0.386184 0.266964 0.101316 0.326786
35 0.626974 0.289286 0.111842 0.332143
8 0.761184 0.300000 0.109211 0.328571
3 0.401974 0.643750 0.125000 0.308929
2 0.570395 0.658036 0.114474 0.326786
7 0.739474 0.676786 0.126316 0.350000
