5 0.245395 0.246429 0.127632 0.342857
5 0.380263 0.256250 0.121053 0.333929
25 0.633553 0.276786 0.122368 0.360714
1 0.749342 0.283036 0.082895 0.333929
0 0.233553 0.641071 0.117105 0.317857
0 0.401974 0.657143 0.114474 0.317857
0 0.578289 0.658929 0.125000 0.339286
9 0.755921 0.675893 0.114474 0.330357
