5 0.259211 0.277679 0.126316 0.326786
9 0.392105 0.283036 0.115789 0.326786
9 0.704605 0.651786 0.119737 0.325000
33 0.664474 0.283929 0.105263 0.342857
1 0.784868 0.289286 0.088158 0.317857
5 0.168421 0.641071 0.128947 0.303571
4 0.330263 0.645536 0.121053 0.319643
4 0.497368 0.655357 0.123684 0.328571
7 0.875000 0.650893 0.131579 0.326786
