5 0.235526 0.249107 0.123684 0.351786
2 0.366447 0.259821 0.119737 0.351786
30 0.643421 0.272321 0.139474 0.344643
8 0.782895 0.281250 0.118421 0.330357
3 0.213816 0.649107 0.122368 0.348214
6 0.392763 0.657143 0.127632 0.325000
6 0.577632 0.673214 0.121053 0.342857
6 0.766447 0.677679 0.125000 0.333929
