5 0.280263 0.276786 0.113158 0.357143
9 0.403947 0.283036 0.107895 0.355357
31 0.657237 0.296429 0.111842 0.382143
2 0.781579 0.294643 0.107895 0.364286
4 0.186184 0.688393 0.109211 0.358929
5 0.344737 0.687500 0.105263 0.353571
5 0.499342 0.693750 0.111842 0.366071
0 0.692763 0.706250 0.106579 0.337500
6 0.852632 0.712500 0.107895 0.339286
