7 0.229605 0.271429 0.140789 0.353571
7 0.290789 0.655357 0.134211 0.328571
1 0.357895 0.275893 0.086842 0.323214
11 0.634868 0.282143 0.125000 0.339286
0 0.122368 0.638393 0.126316 0.319643
2 0.769079 0.298214 0.122368 0.350000
9 0.454605 0.666964 0.127632 0.323214
9 0.667105 0.679464 0.121053 0.330357
9 0.831579 0.685714 0.123684 0.335714
