5 0.301974 0.293750 0.098684 0.316071
9 0.407895 0.309821 0.100000 0.308929
21 0.622368 0.327679 0.110526 0.333929
1 0.734211 0.341071 0.073684 0.321429
6 0.213158 0.639286 0.094737 0.296429
7 0.342105 0.658929 0.107895 0.317857
8 0.484211 0.676786 0.092105 0.296429
2 0.649342 0.680357 0.098684 0.314286
4 0.785526 0.702679 0.115789 0.312500
