5 0.300000 0.286607 0.118421 0.294643
9 0.419737 0.310714 0.107895 0.289286
9 0.652632 0.691964 0.115789 0.291071
21 0.631579 0.344643 0.115789 0.310714
1 0.766447 0.366071 0.096053 0.285714
7 0.182237 0.610714 0.111842 0.292857
7 0.332237 0.639286 0.127632 0.296429
6 0.471711 0.666071 0.111842 0.292857
3 0.798026 0.721429 0.114474 0.289286
