5 0.283553 0.275893 0.106579 0.330357
9 0.409868 0.293750 0.117105 0.326786
17 0.646711 0.298214 0.122368 0.353571
1 0.763816 0.294643 0.101316 0.332143
5 0.207237 0.655357 0.122368 0.314286
4 0.353947 0.668750 0.105263 0.330357
7 0.505263 0.660714 0.118421 0.346429
9 0.684868 0.667857 0.122368 0.314286
2 0.840132 0.675893 0.114474 0.341071
