9 0.293421 0.271429 0.118421 0.332143
2 0.422368 0.282143 0.115789 0.325000
13 0.656579 0.275893 0.134211 0.348214
1 0.776974 0.271429 0.075000 0.332143
4 0.213158 0.675000 0.126316 0.346429
2 0.358553 0.682143 0.127632 0.328571
7 0.503289 0.672321 0.125000 0.351786
0 0.704605 0.668750 0.117105 0.333929
5 0.857237 0.660714 0.119737 0.346429
