35 0.113636 0.490741 0.100000 0.685185
16 0.227273 0.490741 0.090909 0.685185
8 0.454545 0.537037 0.090909 0.666667
8 0.561364 0.537037 0.086364 0.666667
5 0.670455 0.537037 0.086364 0.666667
25 0.829545 0.555556 0.086364 0.666667
20 0.936364 0.546296 0.090909 0.648148
