5 0.278289 0.351786 0.130263 0.292857
1 0.409868 0.365179 0.085526 0.266071
28 0.682237 0.343750 0.093421 0.305357
2 0.817105 0.346429 0.105263 0.289286
5 0.282237 0.725893 0.122368 0.298214
0 0.448026 0.703571 0.122368 0.271429
1 0.640132 0.699107 0.088158 0.298214
3 0.823684 0.704464 0.113158 0.283929
