5 0.278289 0.350000 0.109211 0.300000
9 0.398684 0.350000 0.102632 0.303571
28 0.636184 0.316071 0.101316 0.282143
2 0.755921 0.307143 0.103947 0.307143
2 0.226974 0.722321 0.101316 0.312500
7 0.350658 0.717857 0.090789 0.300000
8 0.513158 0.700000 0.118421 0.292857
3 0.692763 0.664286 0.114474 0.289286
1 0.825000 0.652679 0.086842 0.291071
