7 0.269737 0.324107 0.107895 0.362500
8 0.398026 0.325893 0.101316 0.333929
14 0.641447 0.314286 0.114474 0.335714
1 0.770395 0.294643 0.080263 0.321429
2 0.191447 0.735714 0.135526 0.350000
4 0.353947 0.728571 0.107895 0.328571
1 0.511184 0.729464 0.075000 0.362500
1 0.701974 0.733929 0.075000 0.339286
3 0.847368 0.724107 0.100000 0.341071
