1 0.270395 0.326786 0.082895 0.339286
6 0.381579 0.320536 0.105263 0.308929
15 0.625658 0.322321 0.098684 0.355357
2 0.740789 0.325000 0.097368 0.332143
6 0.273684 0.700000 0.105263 0.300000
3 0.421053 0.709821 0.100000 0.312500
0 0.584211 0.714286 0.092105 0.310714
3 0.742763 0.711607 0.101316 0.323214
