5 0.279605 0.267857 0.106579 0.325000
4 0.399342 0.276786 0.096053 0.335714
28 0.642763 0.292857 0.096053 0.314286
9 0.769737 0.306250 0.097368 0.308929
2 0.240789 0.666071 0.110526 0.321429
0 0.415132 0.680357 0.114474 0.317857
7 0.581579 0.678571 0.128947 0.339286
3 0.744737 0.702679 0.121053 0.330357
