5 0.273684 0.316964 0.123684 0.383929
9 0.396711 0.311607 0.101316 0.369643
34 0.650658 0.309821 0.114474 0.380357
1 0.782237 0.312500 0.090789 0.396429
8 0.182237 0.787500 0.119737 0.367857
7 0.336842 0.783036 0.094737 0.373214
3 0.503947 0.782143 0.123684 0.360714
0 0.704605 0.765179 0.127632 0.348214
4 0.859211 0.757143 0.121053 0.367857
