6 0.245395 0.307143 0.098684 0.296429
0 0.375658 0.303571 0.109211 0.303571
11 0.634868 0.307143 0.098684 0.296429
8 0.763816 0.317857 0.090789 0.296429
1 0.146711 0.675000 0.069737 0.282143
6 0.312500 0.675000 0.103947 0.278571
4 0.478289 0.678571 0.106579 0.296429
5 0.684211 0.672321 0.102632 0.308929
5 0.853289 0.679464 0.101316 0.305357
