5 0.270395 0.317857 0.117105 0.375000
4 0.401974 0.321429 0.090789 0.375000
31 0.642763 0.308929 0.093421 0.389286
3 0.779605 0.299107 0.127632 0.391071
8 0.263158 0.782143 0.115789 0.346429
3 0.442763 0.775893 0.101316 0.341071
1 0.588158 0.766964 0.102632 0.358929
4 0.782895 0.763393 0.113158 0.348214
