5 0.254605 0.293750 0.114474 0.273214
9 0.392105 0.311607 0.113158 0.266071
20 0.672368 0.346429 0.123684 0.300000
1 0.793421 0.351786 0.097368 0.278571
4 0.140789 0.620536 0.107895 0.280357
0 0.307237 0.636607 0.122368 0.287500
6 0.470395 0.644643 0.119737 0.275000
5 0.693421 0.669643 0.131579 0.285714
0 0.859211 0.690179 0.115789 0.280357
