6 0.242105 0.317857 0.113158 0.307143
0 0.374342 0.324107 0.111842 0.333929
33 0.646053 0.324107 0.121053 0.305357
4 0.801974 0.310714 0.101316 0.332143
6 0.234868 0.703571 0.114474 0.325000
4 0.421053 0.703571 0.113158 0.335714
8 0.609868 0.694643 0.106579 0.303571
2 0.796053 0.700893 0.107895 0.312500
