5 0.286184 0.321429 0.101316 0.317857
9 0.401974 0.316964 0.103947 0.312500
13 0.630921 0.286607 0.114474 0.326786
1 0.748684 0.277679 0.100000 0.330357
4 0.232895 0.722321 0.100000 0.316071
3 0.371053 0.705357 0.102632 0.303571
8 0.516447 0.697321 0.101316 0.301786
2 0.700000 0.675893 0.100000 0.305357
0 0.840132 0.657143 0.093421 0.307143
