5 0.339474 0.288393 0.100000 0.305357
9 0.446711 0.305357 0.093421 0.303571
15 0.663158 0.353571 0.105263 0.314286
1 0.759868 0.371429 0.069737 0.296429
5 0.234211 0.617857 0.089474 0.275000
9 0.371053 0.648214 0.100000 0.292857
9 0.505921 0.677679 0.093421 0.294643
9 0.660526 0.717857 0.084211 0.285714
7 0.798026 0.738393 0.114474 0.280357
