5 0.291447 0.340179 0.101316 0.362500
9 0.426316 0.351786 0.102632 0.317857
15 0.669737 0.386607 0.121053 0.323214
1 0.779605 0.400000 0.069737 0.321429
2 0.180921 0.726786 0.114474 0.321429
3 0.334868 0.740179 0.093421 0.319643
8 0.486842 0.765179 0.097368 0.330357
6 0.678947 0.797321 0.123684 0.333929
5 0.834868 0.800000 0.122368 0.335714
