3 0.259211 0.359821 0.105263 0.348214
6 0.385526 0.354464 0.105263 0.348214
15 0.633553 0.342857 0.135526 0.350000
4 0.784868 0.351786 0.117105 0.339286
2 0.278289 0.766071 0.106579 0.328571
6 0.428947 0.766071 0.097368 0.335714
7 0.598684 0.757143 0.092105 0.314286
8 0.786184 0.747321 0.093421 0.316071
