8 0.290789 0.300000 0.097368 0.292857
6 0.409868 0.313393 0.096053 0.305357
11 0.649342 0.347321 0.088158 0.308929
3 0.771053 0.366071 0.094737 0.314286
1 0.171711 0.650893 0.077632 0.298214
9 0.325000 0.657143 0.100000 0.296429
8 0.470395 0.686607 0.101316 0.305357
5 0.667105 0.701786 0.097368 0.296429
8 0.819737 0.725893 0.105263 0.305357
