5 0.247368 0.309821 0.102632 0.312500
9 0.373026 0.316071 0.096053 0.314286
14 0.626316 0.314286 0.105263 0.325000
1 0.740132 0.315179 0.075000 0.316071
5 0.169737 0.699107 0.115789 0.312500
6 0.323684 0.698214 0.107895 0.303571
3 0.479605 0.702679 0.109211 0.308929
4 0.678947 0.704464 0.102632 0.323214
7 0.832237 0.695536 0.101316 0.330357
