5 0.234868 0.301786 0.114474 0.300000
9 0.371711 0.308929 0.109211 0.310714
22 0.642763 0.312500 0.117105 0.321429
1 0.761842 0.322321 0.084211 0.316071
3 0.144079 0.692857 0.114474 0.314286
6 0.311842 0.706250 0.102632 0.333929
4 0.476974 0.705357 0.106579 0.317857
5 0.680921 0.702679 0.106579 0.316071
2 0.852632 0.703571 0.115789 0.321429
