6 0.280263 0.296429 0.110526 0.314286
3 0.401974 0.318750 0.096053 0.319643
28 0.636184 0.338393 0.111842 0.330357
2 0.761842 0.351786 0.110526 0.321429
0 0.261184 0.673214 0.103947 0.289286
2 0.417763 0.702679 0.093421 0.312500
4 0.574342 0.714286 0.090789 0.303571
6 0.734868 0.735714 0.114474 0.325000
