5 0.236842 0.307143 0.121053 0.300000
9 0.378947 0.315179 0.118421 0.294643
30 0.652632 0.333036 0.131579 0.294643
1 0.794737 0.351786 0.097368 0.289286
2 0.132237 0.650000 0.125000 0.285714
5 0.307237 0.650893 0.127632 0.294643
4 0.467105 0.666071 0.107895 0.285714
1 0.678289 0.683036 0.085526 0.269643
8 0.872368 0.706250 0.100000 0.276786
