5 0.225000 0.312500 0.118421 0.321429
9 0.363158 0.316964 0.113158 0.316071
29 0.640132 0.298214 0.096053 0.317857
1 0.764474 0.297321 0.078947 0.301786
0 0.133553 0.689286 0.114474 0.303571
0 0.305921 0.689286 0.114474 0.300000
3 0.473026 0.682143 0.117105 0.300000
8 0.693421 0.678571 0.110526 0.307143
1 0.844079 0.670536 0.085526 0.308929
