5 0.273026 0.317857 0.109211 0.317857
9 0.388158 0.332143 0.092105 0.325000
31 0.614474 0.336607 0.102632 0.326786
2 0.724342 0.337500 0.109211 0.328571
2 0.190789 0.713393 0.136842 0.308929
4 0.340789 0.728571 0.102632 0.292857
6 0.480921 0.716964 0.096053 0.326786
1 0.635526 0.724107 0.081579 0.301786
4 0.808553 0.720536 0.098684 0.305357
