35 0.121560 0.407407 0.105505 0.629630
16 0.229358 0.444444 0.082569 0.629630
6 0.447248 0.453704 0.096330 0.648148
3 0.552752 0.444444 0.096330 0.703704
6 0.662844 0.453704 0.105505 0.648148
29 0.823394 0.453704 0.096330 0.648148
29 0.928899 0.453704 0.087156 0.685185
