11 0.189236 0.400000 0.093750 0.566667
19 0.289931 0.425000 0.086806 0.583333
8 0.477431 0.458333 0.093750 0.583333
1 0.565972 0.466667 0.048611 0.566667
8 0.649306 0.475000 0.076389 0.583333
12 0.772569 0.466667 0.079861 0.600000
23 0.857639 0.491667 0.083333 0.550000
