35 0.140957 0.437500 0.079787 0.541667
16 0.223404 0.447917 0.095745 0.562500
8 0.422872 0.437500 0.079787 0.541667
5 0.513298 0.447917 0.079787 0.520833
5 0.609043 0.406250 0.079787 0.520833
7 0.694149 0.427083 0.079787 0.562500
10 0.811170 0.427083 0.079787 0.520833
10 0.909574 0.416667 0.085106 0.541667
