20 0.131466 0.400000 0.099138 0.680000
29 0.228448 0.420000 0.086207 0.680000
4 0.443966 0.450000 0.094828 0.700000
5 0.551724 0.450000 0.103448 0.740000
1 0.648707 0.470000 0.056034 0.700000
10 0.803879 0.480000 0.073276 0.640000
23 0.898707 0.460000 0.090517 0.640000
