21 0.153571 0.428571 0.078571 0.428571
19 0.242857 0.428571 0.071429 0.476190
29 0.475000 0.440476 0.092857 0.500000
7 0.560714 0.416667 0.064286 0.500000
3 0.692857 0.440476 0.085714 0.452381
1 0.767857 0.452381 0.035714 0.476190
15 0.839286 0.428571 0.064286 0.476190
