35 0.170543 0.480000 0.093023 0.600000
16 0.259690 0.480000 0.085271 0.600000
3 0.455426 0.500000 0.073643 0.640000
2 0.544574 0.500000 0.089147 0.600000
2 0.631783 0.480000 0.077519 0.560000
7 0.720930 0.490000 0.093023 0.620000
23 0.856589 0.500000 0.100775 0.640000
