16 0.143293 0.473684 0.091463 0.684211
2 0.384146 0.473684 0.097561 0.578947
2 0.496951 0.460526 0.079268 0.605263
28 0.640244 0.421053 0.085366 0.684211
20 0.756098 0.460526 0.097561 0.710526
13 0.865854 0.447368 0.085366 0.684211
