35 0.191304 0.510417 0.078261 0.562500
16 0.276087 0.500000 0.082609 0.625000
6 0.458696 0.468750 0.082609 0.645833
8 0.552174 0.468750 0.078261 0.604167
7 0.639130 0.437500 0.086957 0.583333
23 0.769565 0.416667 0.078261 0.541667
21 0.852174 0.406250 0.069565 0.604167
