13 0.156780 0.455357 0.084746 0.553571
10 0.260593 0.473214 0.088983 0.553571
5 0.459746 0.473214 0.088983 0.589286
4 0.559322 0.473214 0.093220 0.589286
5 0.656780 0.482143 0.084746 0.642857
10 0.802966 0.500000 0.105932 0.571429
18 0.904661 0.508929 0.046610 0.553571
