13 0.406250 0.314815 0.218750 0.333333
30 0.609375 0.314815 0.187500 0.333333
1 0.132812 0.648148 0.078125 0.370370
6 0.281250 0.648148 0.156250 0.333333
6 0.468750 0.666667 0.125000 0.296296
11 0.679688 0.694444 0.171875 0.314815
15 0.859375 0.703704 0.156250 0.370370
