12 0.137500 0.495763 0.095833 0.584746
20 0.243750 0.504237 0.095833 0.618644
4 0.457292 0.478814 0.089583 0.618644
2 0.562500 0.487288 0.091667 0.635593
5 0.660417 0.495763 0.091667 0.601695
10 0.815625 0.495763 0.085417 0.618644
11 0.915625 0.487288 0.097917 0.618644
