8 0.290132 0.325000 0.098684 0.271429
1 0.411842 0.325893 0.084211 0.276786
11 0.650000 0.322321 0.102632 0.269643
1 0.778289 0.323214 0.061842 0.278571
6 0.203947 0.676786 0.107895 0.275000
1 0.365132 0.676786 0.080263 0.289286
3 0.517105 0.675893 0.105263 0.287500
8 0.701974 0.673214 0.103947 0.282143
6 0.859868 0.669643 0.117105 0.278571
