5 0.257895 0.331250 0.115789 0.276786
9 0.388816 0.338393 0.117105 0.280357
13 0.650000 0.346429 0.110526 0.307143
2 0.787500 0.350893 0.117105 0.308929
0 0.159211 0.684821 0.110526 0.308929
6 0.320395 0.679464 0.119737 0.305357
4 0.484868 0.694643 0.117105 0.303571
2 0.699342 0.701786 0.122368 0.285714
8 0.867105 0.700000 0.115789 0.278571
