5 0.300658 0.288393 0.111842 0.312500
5 0.425000 0.675893 0.115789 0.316071
4 0.412500 0.300893 0.101316 0.326786
27 0.655921 0.350893 0.111842 0.323214
3 0.779605 0.366071 0.093421 0.303571
9 0.263816 0.666071 0.103947 0.303571
8 0.576974 0.708929 0.098684 0.303571
7 0.733553 0.729464 0.143421 0.323214
