4 0.405921 0.301786 0.093421 0.328571
4 0.433553 0.693750 0.098684 0.319643
34 0.632895 0.302679 0.102632 0.326786
7 0.587500 0.691964 0.119737 0.330357
9 0.755921 0.312500 0.114474 0.339286
6 0.744737 0.694643 0.110526 0.317857
3 0.279605 0.677679 0.106579 0.319643
5 0.283553 0.297321 0.109211 0.330357
