3 0.403947 0.316964 0.113158 0.301786
2 0.173684 0.659821 0.121053 0.330357
3 0.325658 0.671429 0.101316 0.339286
3 0.468421 0.701786 0.100000 0.332143
11 0.646711 0.332143 0.109211 0.335714
2 0.767763 0.351786 0.111842 0.332143
9 0.665132 0.733929 0.109211 0.335714
9 0.809868 0.745536 0.103947 0.333929
