5 0.227632 0.320536 0.115789 0.308929
9 0.361842 0.316071 0.107895 0.314286
9 0.473684 0.696429 0.100000 0.307143
8 0.673026 0.690179 0.101316 0.312500
17 0.626974 0.308929 0.122368 0.339286
1 0.752632 0.302679 0.094737 0.319643
3 0.309211 0.705357 0.131579 0.317857
4 0.157895 0.700000 0.126316 0.292857
6 0.843421 0.691964 0.115789 0.319643
