5 0.288158 0.296429 0.110526 0.296429
5 0.322368 0.649107 0.110526 0.291071
5 0.463816 0.676786 0.106579 0.296429
8 0.181579 0.613393 0.107895 0.266071
8 0.635526 0.714286 0.107895 0.289286
9 0.406579 0.320536 0.107895 0.301786
31 0.643421 0.363393 0.115789 0.312500
1 0.742763 0.389286 0.053947 0.300000
4 0.770395 0.750893 0.088158 0.298214
