5 0.250000 0.292857 0.115789 0.307143
4 0.384868 0.320536 0.098684 0.262500
28 0.638816 0.316964 0.125000 0.305357
2 0.764474 0.327679 0.102632 0.301786
4 0.228947 0.669643 0.094737 0.300000
5 0.402632 0.663393 0.110526 0.326786
2 0.571711 0.684821 0.125000 0.294643
2 0.746053 0.686607 0.118421 0.305357
