7 0.306579 0.365179 0.092105 0.319643
7 0.424342 0.372321 0.096053 0.326786
12 0.654605 0.358036 0.114474 0.291071
1 0.766447 0.351786 0.085526 0.289286
3 0.235526 0.751786 0.102632 0.296429
9 0.376316 0.743750 0.100000 0.294643
3 0.521053 0.744643 0.094737 0.300000
7 0.703289 0.731250 0.085526 0.323214
3 0.846053 0.727679 0.105263 0.316071
