7 0.278947 0.266964 0.136842 0.351786
0 0.411184 0.275000 0.098684 0.339286
0 0.200000 0.644643 0.100000 0.285714
0 0.332895 0.661607 0.084211 0.312500
5 0.478289 0.683036 0.114474 0.312500
5 0.651316 0.698214 0.094737 0.346429
14 0.634868 0.304464 0.106579 0.355357
10 0.748026 0.322321 0.072368 0.323214
7 0.790789 0.719643 0.121053 0.360714
