1 0.382895 0.335714 0.081579 0.317857
1 0.403289 0.712500 0.093421 0.310714
0 0.605263 0.713393 0.126316 0.316071
21 0.660526 0.355357 0.131579 0.317857
8 0.814474 0.368750 0.144737 0.351786
5 0.253947 0.343750 0.134211 0.319643
5 0.790789 0.722321 0.155263 0.323214
2 0.241447 0.699107 0.130263 0.291071
