5 0.311184 0.313393 0.101316 0.326786
9 0.433553 0.326786 0.109211 0.307143
33 0.673026 0.310714 0.101316 0.339286
1 0.794079 0.320536 0.088158 0.319643
4 0.234211 0.695536 0.097368 0.298214
5 0.386184 0.683036 0.114474 0.319643
1 0.515132 0.690179 0.082895 0.298214
2 0.723684 0.689286 0.121053 0.325000
8 0.873684 0.683929 0.097368 0.342857
