4 0.257237 0.358929 0.122368 0.296429
9 0.396053 0.354464 0.134211 0.301786
22 0.669079 0.323214 0.146053 0.307143
7 0.800658 0.315179 0.106579 0.305357
1 0.273684 0.694643 0.102632 0.282143
9 0.468421 0.683929 0.134211 0.282143
7 0.638158 0.667857 0.131579 0.292857
5 0.837500 0.646429 0.140789 0.289286
