5 0.277632 0.283929 0.115789 0.310714
9 0.390132 0.291071 0.093421 0.314286
9 0.648026 0.702679 0.096053 0.308929
7 0.795395 0.714286 0.114474 0.335714
28 0.630921 0.311607 0.122368 0.326786
1 0.738816 0.323214 0.080263 0.328571
4 0.453289 0.686607 0.101316 0.326786
3 0.315132 0.665179 0.098684 0.312500
6 0.172368 0.651786 0.107895 0.314286
