5 0.238816 0.374107 0.127632 0.266071
9 0.392763 0.370536 0.114474 0.251786
22 0.675658 0.383036 0.130263 0.280357
1 0.808553 0.393750 0.077632 0.287500
6 0.126316 0.674107 0.121053 0.291071
0 0.307237 0.676786 0.117105 0.292857
0 0.486184 0.693750 0.117105 0.269643
7 0.714474 0.692857 0.123684 0.264286
7 0.897368 0.691071 0.123684 0.267857
