5 0.311842 0.356250 0.097368 0.291071
9 0.428289 0.359821 0.101316 0.294643
25 0.663158 0.356250 0.105263 0.301786
2 0.787500 0.357143 0.098684 0.303571
1 0.223026 0.703571 0.061842 0.282143
8 0.374342 0.695536 0.109211 0.280357
9 0.523026 0.700000 0.122368 0.289286
0 0.712500 0.698214 0.098684 0.292857
0 0.853947 0.703571 0.107895 0.296429
