5 0.278947 0.339286 0.113158 0.303571
9 0.409211 0.346429 0.115789 0.310714
12 0.663158 0.350893 0.115789 0.298214
1 0.784868 0.362500 0.085526 0.321429
5 0.184868 0.697321 0.114474 0.308929
6 0.498684 0.709821 0.110526 0.298214
1 0.680921 0.726786 0.072368 0.303571
0 0.850000 0.727679 0.107895 0.305357
