7 0.246711 0.328571 0.138158 0.289286
2 0.394737 0.336607 0.131579 0.294643
20 0.657895 0.342857 0.126316 0.325000
1 0.803289 0.354464 0.093421 0.319643
0 0.134211 0.680357 0.118421 0.310714
8 0.315132 0.689286 0.119737 0.285714
9 0.486842 0.695536 0.126316 0.294643
8 0.708553 0.702679 0.114474 0.298214
9 0.885526 0.712500 0.123684 0.300000
