5 0.270395 0.311607 0.109211 0.301786
5 0.478947 0.718750 0.131579 0.341071
5 0.845395 0.741964 0.125000 0.351786
1 0.669079 0.744643 0.090789 0.339286
1 0.778947 0.352679 0.097368 0.316071
17 0.647368 0.328571 0.123684 0.378571
7 0.318421 0.725893 0.136842 0.351786
8 0.165132 0.709821 0.122368 0.348214
