30 0.685526 0.334821 0.139474 0.337500
1 0.817763 0.341071 0.085526 0.339286
1 0.886842 0.715179 0.107895 0.305357
1 0.498684 0.700000 0.097368 0.317857
5 0.269079 0.303571 0.127632 0.342857
6 0.181579 0.697321 0.134211 0.344643
6 0.336842 0.692857 0.118421 0.350000
4 0.715132 0.708929 0.122368 0.321429
9 0.409211 0.314286 0.131579 0.332143
