6 0.296053 0.295536 0.092105 0.298214
0 0.409211 0.300000 0.100000 0.310714
25 0.632895 0.336607 0.097368 0.316071
7 0.750658 0.344643 0.098684 0.307143
1 0.276974 0.670536 0.064474 0.326786
2 0.419737 0.672321 0.089474 0.312500
4 0.583553 0.696429 0.093421 0.307143
6 0.728947 0.721429 0.097368 0.310714
