5 0.284211 0.276786 0.102632 0.307143
15 0.655263 0.329464 0.113158 0.312500
3 0.782237 0.343750 0.109211 0.305357
2 0.409211 0.299107 0.115789 0.312500
9 0.758553 0.708036 0.111842 0.301786
8 0.591447 0.678571 0.111842 0.289286
8 0.426316 0.658036 0.110526 0.301786
8 0.257237 0.638393 0.125000 0.308929
