5 0.232237 0.336607 0.132895 0.287500
9 0.384211 0.338393 0.128947 0.276786
12 0.684868 0.347321 0.138158 0.301786
1 0.825658 0.351786 0.109211 0.310714
5 0.114474 0.674107 0.139474 0.301786
3 0.311842 0.682143 0.131579 0.289286
9 0.497368 0.685714 0.115789 0.289286
9 0.738816 0.690179 0.130263 0.287500
3 0.927632 0.699107 0.131579 0.298214
