5 0.229605 0.343750 0.114474 0.301786
4 0.375000 0.336607 0.105263 0.291071
25 0.644079 0.314286 0.117105 0.307143
7 0.777632 0.310714 0.123684 0.307143
2 0.251316 0.682143 0.123684 0.303571
1 0.417105 0.686607 0.102632 0.316071
3 0.624342 0.661607 0.125000 0.294643
8 0.813816 0.658036 0.125000 0.308929
