5 0.242763 0.294643 0.103947 0.310714
5 0.311184 0.685714 0.103947 0.325000
5 0.821053 0.727679 0.110526 0.326786
28 0.626974 0.328571 0.119737 0.325000
9 0.372368 0.309821 0.107895 0.333929
4 0.146053 0.680357 0.115789 0.325000
2 0.452632 0.713393 0.097368 0.319643
2 0.765132 0.340179 0.114474 0.319643
7 0.656579 0.716071 0.110526 0.325000
