5 0.253947 0.308929 0.118421 0.335714
9 0.378289 0.319643 0.114474 0.321429
6 0.476316 0.714286 0.121053 0.346429
6 0.319079 0.712500 0.132895 0.321429
3 0.151974 0.705357 0.132895 0.339286
3 0.853947 0.744643 0.134211 0.335714
2 0.687500 0.727679 0.119737 0.333929
2 0.791447 0.350893 0.119737 0.316071
28 0.653947 0.345536 0.123684 0.319643
