5 0.228947 0.339286 0.128947 0.300000
9 0.373684 0.342857 0.121053 0.292857
28 0.635526 0.346429 0.121053 0.300000
2 0.787500 0.350893 0.122368 0.294643
2 0.846711 0.692857 0.114474 0.317857
8 0.693421 0.689286 0.100000 0.296429
0 0.480921 0.696429 0.106579 0.285714
0 0.140789 0.698214 0.118421 0.285714
8 0.315789 0.700000 0.102632 0.314286
