5 0.261184 0.335714 0.119737 0.310714
9 0.398026 0.345536 0.117105 0.323214
14 0.686842 0.333036 0.128947 0.330357
1 0.807895 0.346429 0.094737 0.328571
5 0.180263 0.697321 0.121053 0.323214
6 0.344737 0.695536 0.126316 0.308929
3 0.523684 0.695536 0.131579 0.316071
4 0.733553 0.698214 0.119737 0.332143
7 0.897368 0.698214 0.134211 0.328571
