5 0.232895 0.341964 0.118421 0.305357
1 0.479605 0.699107 0.090789 0.287500
33 0.635526 0.307143 0.107895 0.328571
2 0.769737 0.296429 0.121053 0.317857
7 0.689474 0.684821 0.113158 0.312500
7 0.314474 0.712500 0.126316 0.325000
6 0.163816 0.716964 0.140789 0.294643
8 0.867763 0.665179 0.114474 0.326786
9 0.358553 0.333929 0.130263 0.321429
