5 0.248026 0.348214 0.117105 0.300000
9 0.384211 0.348214 0.110526 0.289286
29 0.646053 0.332143 0.110526 0.303571
1 0.769737 0.333929 0.086842 0.310714
8 0.178289 0.708036 0.111842 0.291071
8 0.344079 0.701786 0.119737 0.289286
8 0.501316 0.694643 0.126316 0.303571
0 0.715789 0.683036 0.121053 0.298214
8 0.876316 0.677679 0.113158 0.298214
