5 0.214474 0.379464 0.121053 0.312500
4 0.351316 0.383929 0.118421 0.314286
27 0.632237 0.382143 0.130263 0.317857
4 0.778289 0.381250 0.122368 0.312500
7 0.209211 0.733036 0.113158 0.316071
0 0.402632 0.727679 0.115789 0.319643
3 0.600658 0.733929 0.130263 0.307143
9 0.788158 0.733036 0.128947 0.323214
