5 0.254605 0.357143 0.125000 0.303571
9 0.407895 0.358036 0.128947 0.291071
25 0.685526 0.354464 0.123684 0.312500
1 0.819079 0.362500 0.093421 0.289286
8 0.158553 0.700893 0.122368 0.276786
9 0.332895 0.700000 0.115789 0.275000
2 0.504605 0.699107 0.114474 0.276786
6 0.725000 0.695536 0.115789 0.273214
7 0.907237 0.693750 0.125000 0.287500
