5 0.353289 0.249107 0.127632 0.383929
1 0.502632 0.245536 0.068421 0.391071
15 0.661842 0.231250 0.131579 0.405357
8 0.186842 0.691071 0.126316 0.364286
9 0.332895 0.679464 0.128947 0.355357
3 0.488158 0.656250 0.123684 0.355357
5 0.680263 0.642857 0.131579 0.371429
7 0.830263 0.637500 0.128947 0.378571
