2 0.101282 0.575758 0.092308 0.545455
9 0.205128 0.578788 0.089744 0.503030
10 0.306410 0.603030 0.084615 0.527273
5 0.469231 0.593939 0.097436 0.496970
1 0.571154 0.584848 0.057692 0.490909
7 0.671795 0.560606 0.092308 0.515152
9 0.800000 0.512121 0.092308 0.515152
6 0.899359 0.454545 0.088462 0.496970
