5 0.082692 0.618182 0.098718 0.593939
1 0.183333 0.578788 0.061538 0.575758
10 0.300641 0.566667 0.106410 0.563636
6 0.450000 0.496970 0.097436 0.618182
9 0.558333 0.503030 0.101282 0.557576
1 0.658974 0.469697 0.066667 0.515152
7 0.792949 0.436364 0.091026 0.545455
2 0.914103 0.418182 0.107692 0.521212
