5 0.084615 0.627273 0.087179 0.575758
1 0.182692 0.600000 0.055128 0.533333
16 0.294231 0.572727 0.096154 0.490909
3 0.451923 0.548485 0.088462 0.563636
7 0.547436 0.506061 0.084615 0.515152
3 0.657051 0.496970 0.091026 0.533333
0 0.794231 0.445455 0.091026 0.515152
7 0.898718 0.427273 0.100000 0.539394
