5 0.058333 0.596970 0.093590 0.515152
1 0.166026 0.563636 0.062821 0.545455
15 0.287179 0.560606 0.105128 0.539394
8 0.455769 0.539394 0.088462 0.533333
8 0.565385 0.515152 0.092308 0.509091
2 0.676282 0.524242 0.093590 0.503030
7 0.824359 0.500000 0.100000 0.551515
0 0.936538 0.448485 0.093590 0.484848
