5 0.079487 0.609091 0.100000 0.624242
1 0.191026 0.596970 0.056410 0.648485
15 0.301282 0.566667 0.094872 0.684848
3 0.461538 0.527273 0.097436 0.690909
5 0.570513 0.533333 0.089744 0.642424
6 0.671795 0.521212 0.092308 0.630303
1 0.805769 0.475758 0.055128 0.672727
3 0.916667 0.460606 0.092308 0.642424
