5 0.077564 0.609091 0.093590 0.551515
1 0.182692 0.603030 0.047436 0.551515
16 0.301282 0.566667 0.102564 0.563636
5 0.461538 0.527273 0.107692 0.606061
1 0.564103 0.536364 0.043590 0.551515
3 0.676923 0.539394 0.100000 0.557576
3 0.814103 0.503030 0.094872 0.557576
2 0.922436 0.506061 0.111538 0.563636
