5 0.077564 0.630303 0.096154 0.545455
1 0.182692 0.581818 0.055128 0.557576
15 0.293590 0.560606 0.092308 0.563636
3 0.460897 0.524242 0.096154 0.563636
5 0.567949 0.463636 0.089744 0.600000
6 0.677564 0.454545 0.096154 0.545455
1 0.814103 0.445455 0.053846 0.587879
3 0.917949 0.357576 0.097436 0.557576
