1 0.141026 0.506061 0.048718 0.442424
15 0.269872 0.512121 0.093590 0.490909
5 0.434615 0.496970 0.094872 0.448485
9 0.545513 0.500000 0.080769 0.442424
0 0.662821 0.487879 0.100000 0.466667
1 0.801282 0.466667 0.048718 0.436364
1 0.909615 0.451515 0.050000 0.454545
