5 0.074359 0.587879 0.092308 0.448485
1 0.180769 0.581818 0.051282 0.424242
15 0.287821 0.530303 0.091026 0.442424
5 0.458333 0.500000 0.093590 0.442424
9 0.562179 0.454545 0.083333 0.436364
8 0.667308 0.436364 0.083333 0.424242
8 0.801923 0.390909 0.093590 0.454545
1 0.907692 0.369697 0.051282 0.460606
