5 0.095513 0.639394 0.096154 0.515152
1 0.202564 0.627273 0.058974 0.563636
15 0.299359 0.560606 0.098718 0.539394
2 0.454487 0.518182 0.091026 0.478788
2 0.561538 0.463636 0.089744 0.490909
2 0.657051 0.445455 0.091026 0.490909
6 0.786538 0.384848 0.093590 0.527273
1 0.880769 0.357576 0.041026 0.533333
