5 0.094872 0.606061 0.089744 0.569697
1 0.197436 0.603030 0.051282 0.600000
15 0.308974 0.554545 0.094872 0.563636
8 0.473077 0.524242 0.089744 0.551515
8 0.580128 0.506061 0.083333 0.527273
2 0.685897 0.487879 0.087179 0.551515
7 0.820513 0.472727 0.112821 0.569697
0 0.926282 0.454545 0.085897 0.533333
