5 0.082692 0.551515 0.088462 0.521212
1 0.183333 0.560606 0.056410 0.539394
15 0.298718 0.551515 0.100000 0.557576
1 0.450000 0.518182 0.048718 0.539394
6 0.562821 0.539394 0.092308 0.581818
1 0.657051 0.515152 0.047436 0.569697
5 0.805128 0.487879 0.087179 0.478788
9 0.905128 0.484848 0.092308 0.496970
