5 0.090385 0.584848 0.096154 0.527273
1 0.191026 0.587879 0.048718 0.569697
10 0.304487 0.527273 0.093590 0.557576
7 0.456410 0.487879 0.089744 0.587879
7 0.560256 0.445455 0.092308 0.563636
5 0.667308 0.445455 0.093590 0.563636
2 0.798077 0.418182 0.091026 0.533333
9 0.899359 0.390909 0.085897 0.515152
