5 0.078846 0.566667 0.098718 0.539394
1 0.185897 0.572727 0.051282 0.527273
15 0.303205 0.551515 0.103846 0.581818
0 0.470513 0.536364 0.092308 0.551515
4 0.580128 0.512121 0.096154 0.515152
2 0.691026 0.524242 0.105128 0.539394
7 0.832051 0.481818 0.100000 0.539394
5 0.943590 0.469697 0.105128 0.539394
