5 0.098077 0.584848 0.096154 0.527273
1 0.196795 0.560606 0.044872 0.515152
16 0.310256 0.539394 0.094872 0.509091
4 0.464744 0.521212 0.096154 0.533333
8 0.567308 0.506061 0.088462 0.503030
1 0.665385 0.515152 0.061538 0.533333
5 0.807692 0.472727 0.094872 0.509091
4 0.908333 0.448485 0.088462 0.509091
