5 0.114103 0.581818 0.092308 0.581818
1 0.208974 0.590909 0.053846 0.600000
15 0.321795 0.557576 0.107692 0.581818
0 0.473077 0.509091 0.092308 0.606061
7 0.580769 0.496970 0.094872 0.654545
9 0.681410 0.463636 0.083333 0.600000
7 0.810897 0.445455 0.093590 0.600000
3 0.913462 0.442424 0.091026 0.581818
