5 0.105769 0.572727 0.093590 0.490909
1 0.205128 0.560606 0.048718 0.515152
15 0.311538 0.533333 0.094872 0.521212
2 0.467949 0.487879 0.097436 0.490909
2 0.573077 0.469697 0.092308 0.503030
2 0.678205 0.433333 0.089744 0.527273
6 0.805128 0.396970 0.094872 0.527273
1 0.900000 0.366667 0.046154 0.527273
