5 0.089103 0.563636 0.096154 0.678788
1 0.190385 0.575758 0.065385 0.642424
16 0.301282 0.539394 0.089744 0.666667
5 0.467949 0.557576 0.094872 0.642424
1 0.567308 0.560606 0.052564 0.648485
0 0.676282 0.527273 0.088462 0.630303
0 0.806410 0.503030 0.094872 0.618182
8 0.910256 0.466667 0.092308 0.569697
