5 0.105128 0.575758 0.087179 0.533333
1 0.202564 0.557576 0.051282 0.521212
16 0.311538 0.527273 0.092308 0.569697
3 0.467949 0.478788 0.084615 0.533333
1 0.569872 0.457576 0.057692 0.563636
6 0.674359 0.412121 0.082051 0.569697
9 0.802564 0.384848 0.084615 0.527273
1 0.897436 0.354545 0.048718 0.503030
