5 0.089103 0.593939 0.096154 0.521212
1 0.187179 0.557576 0.053846 0.545455
10 0.307051 0.536364 0.088462 0.490909
0 0.460256 0.457576 0.100000 0.551515
5 0.566026 0.427273 0.096154 0.575758
2 0.675000 0.421212 0.101282 0.490909
2 0.819872 0.363636 0.103846 0.509091
7 0.924359 0.354545 0.094872 0.515152
