6 0.092308 0.557576 0.087179 0.593939
1 0.198077 0.557576 0.057692 0.654545
10 0.299359 0.542424 0.096154 0.624242
2 0.452564 0.542424 0.089744 0.612121
2 0.557692 0.527273 0.094872 0.606061
9 0.658974 0.524242 0.082051 0.600000
5 0.794872 0.512121 0.097436 0.624242
9 0.893590 0.503030 0.087179 0.618182
