5 0.055128 0.615152 0.105128 0.503030
1 0.168590 0.606061 0.062821 0.496970
10 0.290385 0.548485 0.091026 0.478788
6 0.460256 0.506061 0.089744 0.490909
9 0.571795 0.490909 0.089744 0.472727
1 0.680769 0.463636 0.056410 0.442424
7 0.829487 0.451515 0.097436 0.478788
2 0.946154 0.424242 0.102564 0.496970
