5 0.116026 0.536364 0.093590 0.624242
1 0.207692 0.545455 0.056410 0.630303
16 0.316667 0.521212 0.092308 0.618182
5 0.469231 0.536364 0.087179 0.672727
1 0.566667 0.521212 0.053846 0.630303
0 0.667308 0.496970 0.091026 0.618182
0 0.791667 0.457576 0.083333 0.612121
8 0.890385 0.439394 0.078205 0.575758
