5 0.093590 0.606061 0.089744 0.521212
1 0.194231 0.593939 0.047436 0.557576
10 0.308974 0.572727 0.087179 0.539394
8 0.466026 0.527273 0.093590 0.521212
9 0.565385 0.518182 0.094872 0.503030
7 0.679487 0.496970 0.100000 0.521212
1 0.798718 0.472727 0.053846 0.545455
4 0.918590 0.451515 0.098718 0.563636
