5 0.101923 0.548485 0.083333 0.600000
1 0.196154 0.581818 0.033333 0.654545
15 0.315385 0.530303 0.105128 0.648485
6 0.464103 0.512121 0.097436 0.648485
3 0.566026 0.496970 0.088462 0.618182
0 0.673077 0.490909 0.084615 0.666667
3 0.799359 0.478788 0.096154 0.618182
4 0.905769 0.445455 0.098718 0.612121
