5 0.083333 0.590909 0.097436 0.551515
1 0.183333 0.557576 0.053846 0.545455
15 0.296795 0.563636 0.093590 0.545455
8 0.460256 0.503030 0.094872 0.545455
8 0.561538 0.521212 0.087179 0.509091
2 0.667949 0.481818 0.089744 0.515152
7 0.803846 0.484848 0.089744 0.557576
0 0.908974 0.454545 0.082051 0.496970
