35 0.146635 0.519231 0.091346 0.538462
16 0.247596 0.519231 0.081731 0.538462
9 0.451923 0.490385 0.076923 0.557692
9 0.543269 0.490385 0.086538 0.519231
0 0.644231 0.480769 0.086538 0.538462
23 0.786058 0.461538 0.091346 0.538462
21 0.882212 0.461538 0.091346 0.538462
