28 0.182692 0.446970 0.073077 0.560606
20 0.273077 0.454545 0.084615 0.545455
6 0.473077 0.446970 0.076923 0.530303
4 0.561538 0.462121 0.084615 0.560606
6 0.653846 0.462121 0.076923 0.560606
12 0.788462 0.477273 0.084615 0.590909
10 0.878846 0.454545 0.088462 0.545455
