35 0.134783 0.527778 0.095652 0.574074
16 0.234783 0.537037 0.095652 0.555556
3 0.447826 0.546296 0.086957 0.574074
9 0.545652 0.537037 0.091304 0.592593
4 0.652174 0.527778 0.104348 0.574074
19 0.802174 0.537037 0.100000 0.555556
30 0.904348 0.537037 0.095652 0.592593
