29 0.053738 0.500000 0.079439 0.642857
24 0.172897 0.508929 0.121495 0.589286
21 0.287383 0.500000 0.079439 0.571429
33 0.462617 0.508929 0.084112 0.589286
12 0.563084 0.500000 0.079439 0.571429
8 0.714953 0.482143 0.084112 0.571429
0 0.815421 0.473214 0.088785 0.553571
3 0.915888 0.482143 0.093458 0.571429
