12 0.171260 0.500000 0.090551 0.615385
20 0.261811 0.528846 0.082677 0.673077
3 0.450787 0.548077 0.090551 0.596154
1 0.547244 0.509615 0.047244 0.596154
1 0.635827 0.519231 0.043307 0.615385
11 0.773622 0.509615 0.082677 0.596154
27 0.874016 0.509615 0.094488 0.596154
