35 0.112745 0.488095 0.098039 0.738095
16 0.220588 0.511905 0.098039 0.738095
9 0.443627 0.476190 0.093137 0.761905
1 0.553922 0.500000 0.058824 0.761905
2 0.661765 0.500000 0.098039 0.714286
12 0.828431 0.535714 0.088235 0.690476
20 0.933824 0.511905 0.102941 0.690476
