17 0.177928 0.470588 0.112613 0.588235
17 0.405405 0.463235 0.117117 0.573529
27 0.527027 0.470588 0.117117 0.588235
8 0.673423 0.455882 0.103604 0.588235
5 0.781532 0.455882 0.103604 0.558824
0 0.891892 0.455882 0.108108 0.558824
