11 0.159091 0.383333 0.113636 0.566667
27 0.392045 0.483333 0.125000 0.633333
19 0.511364 0.466667 0.113636 0.533333
1 0.653409 0.500000 0.147727 0.600000
9 0.778409 0.550000 0.102273 0.566667
3 0.892045 0.566667 0.125000 0.600000
