12 0.140187 0.442308 0.093458 0.576923
20 0.245327 0.471154 0.098131 0.596154
2 0.467290 0.471154 0.102804 0.596154
3 0.570093 0.480769 0.084112 0.576923
7 0.672897 0.461538 0.093458 0.576923
31 0.829439 0.461538 0.098131 0.615385
