35 0.135514 0.481481 0.093458 0.592593
16 0.242991 0.481481 0.093458 0.555556
7 0.453271 0.500000 0.084112 0.555556
7 0.560748 0.500000 0.084112 0.555556
3 0.658879 0.518519 0.084112 0.592593
31 0.815421 0.490741 0.088785 0.611111
14 0.911215 0.481481 0.084112 0.592593
