35 0.142276 0.500000 0.097561 0.615385
16 0.245935 0.500000 0.085366 0.615385
4 0.459350 0.509615 0.097561 0.634615
1 0.552846 0.500000 0.048780 0.653846
5 0.652439 0.509615 0.101626 0.673077
22 0.806911 0.480769 0.093496 0.653846
10 0.912602 0.480769 0.109756 0.615385
