22 0.118534 0.475806 0.125000 0.532258
11 0.232759 0.483871 0.103448 0.516129
4 0.484914 0.483871 0.090517 0.548387
0 0.575431 0.467742 0.090517 0.516129
7 0.713362 0.483871 0.090517 0.548387
1 0.790948 0.475806 0.056034 0.564516
25 0.875000 0.475806 0.094828 0.564516
