35 0.143519 0.517857 0.101852 0.607143
16 0.250000 0.535714 0.092593 0.571429
5 0.462963 0.535714 0.111111 0.642857
1 0.569444 0.535714 0.064815 0.642857
1 0.666667 0.553571 0.055556 0.678571
4 0.773148 0.553571 0.120370 0.750000
14 0.930556 0.517857 0.101852 0.678571
