35 0.169421 0.500000 0.082645 0.625000
16 0.264463 0.552083 0.090909 0.687500
9 0.460744 0.552083 0.078512 0.687500
9 0.553719 0.552083 0.090909 0.645833
5 0.648760 0.572917 0.082645 0.645833
23 0.785124 0.562500 0.090909 0.625000
23 0.884298 0.583333 0.090909 0.625000
