5 0.245395 0.264286 0.114474 0.357143
9 0.383553 0.281250 0.122368 0.351786
14 0.657237 0.270536 0.132895 0.355357
1 0.776974 0.284821 0.103947 0.351786
1 0.139474 0.683036 0.089474 0.351786
3 0.319737 0.684821 0.115789 0.366071
4 0.488816 0.697321 0.135526 0.362500
1 0.687500 0.698214 0.093421 0.360714
7 0.867105 0.692857 0.126316 0.382143
