5 0.265789 0.300000 0.123684 0.371429
9 0.394737 0.292857 0.105263 0.350000
15 0.648684 0.291071 0.121053 0.375000
1 0.762500 0.286607 0.075000 0.373214
0 0.176974 0.733036 0.101316 0.348214
8 0.332895 0.723214 0.102632 0.335714
5 0.495395 0.721429 0.106579 0.367857
0 0.692105 0.718750 0.102632 0.348214
1 0.830263 0.716964 0.081579 0.362500
