5 0.246053 0.257143 0.107895 0.335714
9 0.373684 0.278571 0.105263 0.357143
28 0.625000 0.288393 0.110526 0.344643
1 0.738816 0.283036 0.075000 0.348214
7 0.159211 0.667857 0.134211 0.350000
5 0.319737 0.672321 0.118421 0.333929
7 0.471053 0.694643 0.118421 0.375000
1 0.646711 0.677679 0.085526 0.355357
5 0.822368 0.695536 0.105263 0.362500
