6 0.247368 0.240179 0.097368 0.337500
7 0.390789 0.254464 0.123684 0.348214
22 0.656579 0.300000 0.121053 0.371429
2 0.795395 0.316071 0.106579 0.360714
3 0.215789 0.666964 0.102632 0.337500
7 0.404605 0.675000 0.130263 0.353571
8 0.578947 0.699107 0.115789 0.344643
9 0.769079 0.729464 0.101316 0.366071
