5 0.249342 0.268750 0.103947 0.326786
9 0.382237 0.276786 0.093421 0.328571
13 0.648684 0.282143 0.113158 0.346429
1 0.768421 0.287500 0.078947 0.328571
7 0.148026 0.653571 0.127632 0.367857
8 0.309211 0.665179 0.107895 0.330357
2 0.473026 0.666964 0.111842 0.326786
6 0.680921 0.672321 0.127632 0.319643
2 0.837500 0.683036 0.101316 0.333929
