6 0.259868 0.266964 0.096053 0.351786
2 0.376974 0.271429 0.103947 0.339286
20 0.617105 0.264286 0.100000 0.360714
5 0.743421 0.267857 0.102632 0.367857
1 0.254605 0.684821 0.075000 0.337500
2 0.419079 0.684821 0.114474 0.348214
5 0.576974 0.681250 0.103947 0.366071
0 0.743421 0.683036 0.115789 0.330357
