5 0.245395 0.234821 0.103947 0.376786
9 0.383553 0.241964 0.122368 0.366071
29 0.645395 0.249107 0.111842 0.398214
1 0.765132 0.243750 0.085526 0.369643
4 0.153947 0.675893 0.118421 0.344643
6 0.321053 0.680357 0.110526 0.371429
4 0.490132 0.685714 0.096053 0.378571
5 0.696053 0.677679 0.121053 0.380357
7 0.853289 0.687500 0.098684 0.375000
