5 0.243421 0.252679 0.110526 0.326786
9 0.400658 0.282143 0.117105 0.321429
12 0.682237 0.336607 0.122368 0.330357
1 0.830263 0.371429 0.065789 0.317857
3 0.165789 0.628571 0.123684 0.296429
1 0.312500 0.652679 0.085526 0.316071
1 0.430263 0.691964 0.084211 0.341071
6 0.654605 0.705357 0.117105 0.314286
2 0.809868 0.752679 0.127632 0.330357
