6 0.290789 0.250000 0.102632 0.360714
7 0.411184 0.253571 0.111842 0.364286
21 0.636184 0.265179 0.103947 0.376786
1 0.752632 0.261607 0.065789 0.383929
3 0.196053 0.682143 0.102632 0.353571
3 0.348026 0.693750 0.093421 0.358929
5 0.496711 0.697321 0.096053 0.362500
2 0.684868 0.698214 0.093421 0.353571
5 0.831579 0.695536 0.102632 0.366071
