5 0.207895 0.274107 0.139474 0.351786
9 0.348026 0.271429 0.132895 0.367857
12 0.623684 0.247321 0.144737 0.348214
2 0.773684 0.253571 0.152632 0.364286
2 0.151974 0.702679 0.138158 0.369643
1 0.301974 0.697321 0.096053 0.380357
0 0.491447 0.684821 0.151316 0.394643
9 0.698026 0.669643 0.135526 0.375000
8 0.876316 0.645536 0.123684 0.348214
