5 0.221053 0.275893 0.128947 0.362500
9 0.368421 0.276786 0.118421 0.342857
14 0.657895 0.266964 0.123684 0.358929
1 0.778289 0.271429 0.096053 0.353571
4 0.140789 0.709821 0.121053 0.355357
2 0.310526 0.705357 0.123684 0.360714
5 0.488816 0.697321 0.125000 0.348214
3 0.710526 0.691071 0.134211 0.353571
0 0.892105 0.692857 0.123684 0.350000
