5 0.237500 0.291071 0.125000 0.350000
9 0.373684 0.282143 0.118421 0.325000
33 0.636184 0.273214 0.119737 0.367857
1 0.753947 0.265179 0.092105 0.341071
4 0.167105 0.712500 0.126316 0.353571
9 0.336842 0.697321 0.131579 0.326786
5 0.494079 0.690179 0.130263 0.358929
5 0.692763 0.673214 0.101316 0.332143
3 0.866447 0.665179 0.114474 0.330357
