7 0.304605 0.256250 0.106579 0.323214
7 0.434211 0.276786 0.107895 0.339286
17 0.676974 0.311607 0.103947 0.348214
1 0.805263 0.346429 0.065789 0.328571
0 0.171711 0.633036 0.109211 0.305357
6 0.331579 0.665179 0.110526 0.330357
8 0.488816 0.687500 0.109211 0.328571
3 0.682895 0.715179 0.100000 0.298214
0 0.846711 0.733036 0.111842 0.312500
