5 0.242763 0.263393 0.114474 0.355357
2 0.379605 0.265179 0.109211 0.348214
35 0.634211 0.267857 0.115789 0.367857
6 0.767105 0.266071 0.105263 0.350000
7 0.235526 0.675893 0.128947 0.362500
7 0.418421 0.690179 0.107895 0.369643
6 0.590789 0.685714 0.105263 0.357143
6 0.761842 0.691071 0.118421 0.357143
