7 0.240132 0.247321 0.096053 0.341071
6 0.381579 0.253571 0.121053 0.335714
16 0.652632 0.266071 0.118421 0.332143
1 0.784211 0.275000 0.078947 0.335714
2 0.140789 0.675000 0.126316 0.325000
2 0.312500 0.683036 0.122368 0.333929
6 0.487500 0.685714 0.125000 0.339286
0 0.694737 0.683036 0.118421 0.333929
7 0.859868 0.688393 0.117105 0.369643
