6 0.248026 0.269643 0.109211 0.350000
8 0.388158 0.270536 0.121053 0.355357
33 0.637500 0.261607 0.114474 0.373214
1 0.774342 0.258929 0.098684 0.350000
2 0.160526 0.712500 0.118421 0.350000
1 0.322368 0.708929 0.081579 0.353571
0 0.492105 0.708929 0.121053 0.350000
0 0.700658 0.700893 0.109211 0.348214
2 0.871053 0.692857 0.115789 0.350000
