8 0.276316 0.264286 0.092105 0.332143
5 0.396053 0.271429 0.110526 0.339286
13 0.626974 0.288393 0.098684 0.344643
1 0.746053 0.307143 0.057895 0.350000
0 0.169079 0.655357 0.085526 0.321429
5 0.325000 0.660714 0.102632 0.321429
9 0.466447 0.678571 0.103947 0.317857
6 0.659868 0.696429 0.077632 0.339286
0 0.808553 0.707143 0.082895 0.317857
