5 0.250658 0.264286 0.122368 0.353571
9 0.388816 0.261607 0.122368 0.348214
14 0.669079 0.264286 0.132895 0.350000
1 0.782895 0.256250 0.084211 0.344643
3 0.161184 0.670536 0.114474 0.333929
4 0.334211 0.682143 0.136842 0.350000
1 0.485526 0.670536 0.089474 0.344643
9 0.708553 0.675000 0.119737 0.353571
2 0.873684 0.665179 0.121053 0.344643
