6 0.269079 0.238393 0.119737 0.319643
0 0.398684 0.254464 0.115789 0.319643
11 0.648026 0.292857 0.117105 0.317857
7 0.783553 0.303571 0.114474 0.325000
1 0.157895 0.607143 0.076316 0.339286
1 0.321053 0.633036 0.068421 0.330357
5 0.476316 0.643750 0.121053 0.319643
5 0.681579 0.673214 0.134211 0.332143
7 0.837500 0.688393 0.119737 0.301786
