5 0.260526 0.264286 0.105263 0.360714
9 0.389474 0.263393 0.110526 0.348214
17 0.648026 0.266964 0.111842 0.358929
1 0.757237 0.264286 0.080263 0.360714
6 0.171711 0.691071 0.103947 0.339286
7 0.331579 0.682143 0.105263 0.353571
7 0.490132 0.693750 0.098684 0.373214
9 0.698684 0.684821 0.110526 0.351786
1 0.838816 0.691071 0.077632 0.346429
