5 0.248684 0.315179 0.115789 0.298214
9 0.390789 0.318750 0.123684 0.287500
21 0.672368 0.336607 0.118421 0.294643
2 0.816447 0.333929 0.106579 0.303571
2 0.142763 0.678571 0.109211 0.328571
3 0.315789 0.683929 0.113158 0.285714
7 0.488158 0.683036 0.123684 0.294643
1 0.692763 0.691964 0.117105 0.312500
4 0.880921 0.713393 0.109211 0.326786
