6 0.269737 0.257143 0.105263 0.378571
1 0.396053 0.266071 0.078947 0.371429
11 0.643421 0.258929 0.105263 0.357143
1 0.776316 0.271429 0.081579 0.364286
6 0.175658 0.681250 0.119737 0.355357
1 0.339474 0.690179 0.073684 0.348214
8 0.494737 0.693750 0.102632 0.351786
7 0.696711 0.699107 0.109211 0.366071
8 0.853289 0.705357 0.096053 0.350000
