8 0.250000 0.297321 0.110526 0.358929
4 0.375000 0.293750 0.121053 0.380357
20 0.617763 0.310714 0.114474 0.382143
3 0.751316 0.322321 0.126316 0.358929
4 0.226974 0.678571 0.127632 0.321429
9 0.403947 0.688393 0.126316 0.316071
0 0.577632 0.699107 0.115789 0.330357
0 0.740789 0.700893 0.126316 0.305357
