7 0.283553 0.280357 0.098684 0.353571
9 0.400658 0.288393 0.109211 0.330357
17 0.643421 0.306250 0.105263 0.344643
5 0.765132 0.316071 0.090789 0.339286
7 0.269079 0.675000 0.103947 0.364286
6 0.429605 0.699107 0.093421 0.341071
3 0.594737 0.717857 0.100000 0.353571
0 0.752632 0.716964 0.107895 0.330357
