5 0.261184 0.297321 0.117105 0.344643
9 0.384211 0.309821 0.097368 0.316071
12 0.625658 0.304464 0.111842 0.337500
2 0.747368 0.307143 0.100000 0.332143
2 0.175658 0.688393 0.117105 0.319643
7 0.329605 0.698214 0.111842 0.339286
4 0.483553 0.683929 0.103947 0.321429
1 0.651974 0.694643 0.080263 0.332143
5 0.819737 0.694643 0.113158 0.325000
