5 0.267105 0.341071 0.102632 0.296429
9 0.406579 0.353571 0.097368 0.317857
15 0.694737 0.352679 0.126316 0.326786
1 0.819079 0.349107 0.075000 0.316071
7 0.167105 0.700000 0.118421 0.296429
0 0.338816 0.693750 0.114474 0.291071
4 0.509868 0.697321 0.106579 0.305357
2 0.740789 0.729464 0.105263 0.298214
4 0.901316 0.721429 0.105263 0.317857
