8 0.255921 0.265179 0.103947 0.337500
4 0.390789 0.276786 0.089474 0.357143
16 0.642763 0.303571 0.106579 0.342857
1 0.757895 0.311607 0.078947 0.355357
2 0.153289 0.664286 0.101316 0.346429
2 0.307237 0.678571 0.103947 0.342857
5 0.472368 0.675000 0.121053 0.360714
9 0.662500 0.704464 0.111842 0.330357
3 0.825658 0.725893 0.101316 0.348214
