5 0.232895 0.270536 0.107895 0.323214
9 0.373026 0.280357 0.125000 0.342857
28 0.634211 0.269643 0.134211 0.342857
1 0.754605 0.267857 0.077632 0.346429
5 0.152632 0.674107 0.115789 0.326786
9 0.311842 0.675893 0.113158 0.330357
6 0.480921 0.671429 0.109211 0.328571
9 0.677632 0.660714 0.115789 0.317857
4 0.842105 0.678571 0.115789 0.350000
