6 0.242763 0.264286 0.117105 0.371429
5 0.373684 0.258036 0.118421 0.366071
30 0.630263 0.244643 0.128947 0.392857
2 0.762500 0.236607 0.111842 0.358929
4 0.248684 0.703571 0.105263 0.353571
7 0.413816 0.708036 0.117105 0.391071
8 0.600000 0.690179 0.113158 0.376786
7 0.765132 0.688393 0.114474 0.380357
