5 0.314474 0.248214 0.126316 0.321429
2 0.442105 0.282143 0.123684 0.296429
25 0.682895 0.336607 0.136842 0.312500
2 0.821711 0.358036 0.114474 0.326786
8 0.255921 0.612500 0.111842 0.303571
1 0.414474 0.641964 0.089474 0.301786
4 0.586184 0.697321 0.109211 0.294643
6 0.767105 0.714286 0.139474 0.289286
