7 0.232237 0.309821 0.111842 0.326786
6 0.375000 0.297321 0.128947 0.333929
16 0.630263 0.264286 0.134211 0.325000
1 0.772368 0.256250 0.123684 0.337500
1 0.188816 0.725893 0.114474 0.333929
2 0.346711 0.708036 0.132895 0.337500
0 0.503947 0.691964 0.115789 0.316071
0 0.703947 0.658929 0.126316 0.310714
0 0.867105 0.639286 0.131579 0.325000
