4 0.299342 0.276786 0.093421 0.332143
9 0.413816 0.296429 0.093421 0.310714
15 0.643421 0.318750 0.115789 0.333929
1 0.773026 0.347321 0.069737 0.326786
0 0.185526 0.645536 0.107895 0.305357
8 0.333553 0.666071 0.096053 0.310714
6 0.478289 0.690179 0.098684 0.316071
6 0.667105 0.722321 0.107895 0.312500
0 0.816447 0.740179 0.103947 0.308929
