5 0.259868 0.291071 0.101316 0.314286
9 0.392763 0.308929 0.101316 0.314286
28 0.649342 0.323214 0.106579 0.310714
1 0.769737 0.347321 0.078947 0.308929
8 0.155263 0.669643 0.110526 0.292857
7 0.321711 0.679464 0.122368 0.305357
2 0.478947 0.700000 0.121053 0.328571
3 0.687500 0.716071 0.127632 0.328571
1 0.833553 0.721429 0.082895 0.342857
