5 0.255263 0.266964 0.123684 0.348214
5 0.396711 0.260714 0.125000 0.364286
25 0.682895 0.277679 0.123684 0.387500
5 0.825000 0.268750 0.126316 0.373214
6 0.246711 0.694643 0.130263 0.346429
8 0.436842 0.702679 0.115789 0.326786
7 0.626316 0.708036 0.126316 0.369643
6 0.812500 0.712500 0.135526 0.371429
