5 0.219079 0.315179 0.143421 0.316071
3 0.365132 0.339286 0.122368 0.307143
31 0.667763 0.338393 0.130263 0.316071
9 0.815789 0.353571 0.126316 0.321429
7 0.201974 0.671429 0.132895 0.303571
9 0.405921 0.692857 0.122368 0.289286
7 0.599342 0.703571 0.125000 0.303571
6 0.794737 0.700000 0.136842 0.310714
