5 0.284868 0.268750 0.101316 0.344643
9 0.409211 0.265179 0.102632 0.341071
28 0.644079 0.267857 0.093421 0.353571
1 0.753289 0.276786 0.067105 0.357143
0 0.200658 0.689286 0.096053 0.339286
0 0.357895 0.691071 0.107895 0.339286
6 0.504605 0.697321 0.098684 0.341071
8 0.685526 0.687500 0.115789 0.335714
5 0.838816 0.687500 0.103947 0.357143
