5 0.246053 0.294643 0.150000 0.339286
1 0.361842 0.291071 0.105263 0.346429
31 0.629605 0.258036 0.122368 0.351786
4 0.786184 0.256250 0.135526 0.355357
4 0.269737 0.716964 0.121053 0.351786
5 0.443421 0.685714 0.134211 0.350000
7 0.617105 0.667857 0.118421 0.357143
9 0.803947 0.655357 0.121053 0.325000
