5 0.103846 0.551515 0.094872 0.618182
1 0.201282 0.560606 0.046154 0.563636
15 0.312179 0.542424 0.085897 0.587879
2 0.460256 0.490909 0.074359 0.521212
1 0.560897 0.481818 0.047436 0.587879
2 0.667949 0.460606 0.076923 0.509091
5 0.804487 0.466667 0.085897 0.496970
5 0.906410 0.427273 0.079487 0.527273
