5 0.118590 0.539394 0.101282 0.593939
2 0.244872 0.554545 0.097436 0.600000
34 0.364103 0.527273 0.105128 0.678788
6 0.539744 0.527273 0.097436 0.593939
4 0.657692 0.524242 0.097436 0.600000
9 0.774359 0.521212 0.087179 0.630303
0 0.889103 0.469697 0.093590 0.563636
