5 0.069872 0.545455 0.088462 0.533333
1 0.170513 0.518182 0.051282 0.600000
15 0.283974 0.506061 0.091026 0.551515
0 0.446154 0.466667 0.076923 0.496970
2 0.560256 0.463636 0.084615 0.539394
6 0.667308 0.457576 0.083333 0.515152
8 0.797436 0.421212 0.076923 0.515152
7 0.909615 0.439394 0.096154 0.563636
