6 0.076923 0.569697 0.092308 0.533333
1 0.185256 0.533333 0.052564 0.545455
10 0.296154 0.548485 0.087179 0.539394
2 0.458974 0.490909 0.087179 0.521212
2 0.565385 0.481818 0.084615 0.490909
9 0.673718 0.463636 0.083333 0.527273
9 0.922436 0.424242 0.085897 0.521212
5 0.815385 0.424242 0.100000 0.569697
