5 0.096154 0.530303 0.084615 0.575758
1 0.193590 0.533333 0.041026 0.618182
10 0.303205 0.518182 0.080769 0.563636
0 0.460897 0.500000 0.085897 0.587879
1 0.553205 0.493939 0.039744 0.600000
2 0.664744 0.475758 0.080769 0.575758
0 0.798718 0.448485 0.082051 0.581818
4 0.895513 0.448485 0.080769 0.581818
