5 0.127564 0.518182 0.093590 0.490909
6 0.242308 0.503030 0.082051 0.533333
23 0.366026 0.527273 0.098718 0.496970
7 0.542949 0.472727 0.098718 0.581818
1 0.651282 0.463636 0.043590 0.527273
8 0.770513 0.451515 0.092308 0.503030
6 0.883974 0.448485 0.091026 0.521212
