5 0.072436 0.593939 0.101282 0.472727
1 0.183333 0.621212 0.048718 0.454545
16 0.298077 0.533333 0.096154 0.387879
1 0.457051 0.536364 0.050000 0.442424
0 0.571795 0.481818 0.097436 0.454545
0 0.681410 0.442424 0.085897 0.448485
9 0.823718 0.415152 0.083333 0.442424
6 0.939103 0.409091 0.093590 0.454545
