5 0.090385 0.566667 0.085897 0.515152
1 0.189744 0.563636 0.048718 0.521212
15 0.298718 0.545455 0.107692 0.557576
8 0.458974 0.548485 0.076923 0.478788
2 0.560256 0.530303 0.087179 0.503030
6 0.666667 0.518182 0.074359 0.466667
0 0.807692 0.524242 0.074359 0.478788
6 0.910897 0.512121 0.075641 0.478788
