5 0.105769 0.615152 0.080769 0.442424
1 0.201923 0.551515 0.050000 0.424242
16 0.305769 0.539394 0.088462 0.424242
0 0.462821 0.469697 0.079487 0.406061
0 0.557692 0.430303 0.076923 0.436364
6 0.662821 0.403030 0.071795 0.418182
7 0.789103 0.375758 0.091026 0.484848
2 0.893590 0.327273 0.074359 0.460606
