5 0.132051 0.618182 0.082051 0.424242
1 0.230128 0.596970 0.057692 0.490909
10 0.331410 0.548485 0.070513 0.430303
6 0.473718 0.463636 0.088462 0.454545
9 0.572436 0.433333 0.062821 0.430303
1 0.662821 0.430303 0.064103 0.484848
7 0.785256 0.375758 0.083333 0.436364
2 0.887179 0.354545 0.076923 0.406061
