28 0.137295 0.437500 0.069672 0.531250
13 0.241803 0.453125 0.081967 0.531250
2 0.452869 0.453125 0.086066 0.562500
6 0.563525 0.460938 0.077869 0.546875
8 0.663934 0.460938 0.090164 0.546875
11 0.811475 0.492188 0.098361 0.546875
35 0.920082 0.476562 0.094262 0.578125
