13 0.178571 0.517241 0.078571 0.551724
30 0.273214 0.517241 0.082143 0.586207
1 0.476786 0.534483 0.039286 0.586207
9 0.566071 0.525862 0.075000 0.568966
0 0.660714 0.534483 0.078571 0.586207
12 0.798214 0.508621 0.075000 0.534483
14 0.887500 0.508621 0.075000 0.534483
