9 0.392763 0.301786 0.138158 0.342857
9 0.309211 0.681250 0.123684 0.326786
7 0.471053 0.669643 0.142105 0.342857
7 0.140132 0.660714 0.130263 0.353571
5 0.250658 0.294643 0.122368 0.342857
29 0.663158 0.300893 0.134211 0.319643
1 0.789474 0.304464 0.100000 0.333929
2 0.864474 0.688393 0.147368 0.341071
4 0.698684 0.678571 0.142105 0.339286
