9 0.390789 0.321429 0.123684 0.314286
7 0.488158 0.691964 0.157895 0.312500
7 0.861842 0.683929 0.134211 0.350000
3 0.698684 0.683929 0.131579 0.321429
1 0.328289 0.690179 0.098684 0.291071
4 0.180921 0.703571 0.114474 0.307143
5 0.259211 0.327679 0.115789 0.326786
28 0.652632 0.306250 0.110526 0.323214
2 0.788816 0.327679 0.125000 0.323214
