5 0.303947 0.309821 0.113158 0.344643
4 0.444079 0.327679 0.109211 0.333929
4 0.455263 0.710714 0.128947 0.346429
4 0.280263 0.698214 0.152632 0.382143
6 0.629605 0.735714 0.119737 0.339286
6 0.700000 0.350000 0.134211 0.353571
1 0.828947 0.357143 0.100000 0.357143
9 0.803289 0.754464 0.130263 0.373214
