6 0.421053 0.349107 0.118421 0.337500
6 0.290132 0.338393 0.111842 0.330357
6 0.270395 0.702679 0.106579 0.330357
0 0.615132 0.716964 0.130263 0.341071
0 0.787500 0.729464 0.122368 0.312500
21 0.661184 0.343750 0.114474 0.312500
3 0.794737 0.350893 0.121053 0.326786
4 0.448684 0.711607 0.121053 0.348214
