6 0.278289 0.331250 0.117105 0.319643
0 0.413816 0.340179 0.117105 0.333929
0 0.179605 0.683036 0.138158 0.333929
6 0.347368 0.696429 0.134211 0.332143
3 0.489474 0.718750 0.113158 0.308929
7 0.678289 0.724107 0.146053 0.358929
0 0.843421 0.732143 0.136842 0.335714
2 0.785526 0.366964 0.123684 0.333929
11 0.644737 0.358929 0.128947 0.350000
