9 0.362500 0.342857 0.127632 0.278571
4 0.470395 0.673214 0.101316 0.278571
4 0.879605 0.675000 0.122368 0.292857
2 0.700000 0.669643 0.128947 0.275000
1 0.796053 0.353571 0.078947 0.285714
15 0.663158 0.358036 0.134211 0.301786
5 0.219737 0.344643 0.118421 0.264286
0 0.286842 0.665179 0.139474 0.269643
7 0.111842 0.658036 0.126316 0.258929
