9 0.400658 0.311607 0.135526 0.316071
0 0.505263 0.675893 0.131579 0.323214
0 0.730921 0.683036 0.135526 0.308929
2 0.900000 0.671429 0.113158 0.335714
1 0.800000 0.312500 0.100000 0.332143
29 0.665789 0.312500 0.131579 0.364286
1 0.326974 0.686607 0.090789 0.319643
5 0.250658 0.315179 0.135526 0.337500
5 0.158553 0.691071 0.135526 0.325000
