33 0.667763 0.331250 0.138158 0.341071
1 0.797368 0.334821 0.092105 0.348214
9 0.882237 0.724107 0.130263 0.337500
6 0.707237 0.729464 0.127632 0.333929
3 0.485526 0.722321 0.131579 0.323214
9 0.317763 0.732143 0.159211 0.350000
4 0.151974 0.730357 0.135526 0.353571
9 0.378289 0.326786 0.130263 0.364286
5 0.231579 0.339286 0.142105 0.364286
