5 0.257895 0.349107 0.123684 0.291071
9 0.391447 0.347321 0.140789 0.305357
9 0.316447 0.683929 0.135526 0.307143
1 0.473684 0.668750 0.100000 0.258929
31 0.669737 0.366071 0.115789 0.296429
1 0.788816 0.376786 0.077632 0.307143
8 0.871053 0.710714 0.113158 0.300000
5 0.699342 0.704464 0.146053 0.326786
8 0.157237 0.683036 0.127632 0.323214
