5 0.253947 0.306250 0.131579 0.301786
9 0.394737 0.302679 0.113158 0.308929
30 0.676316 0.301786 0.152632 0.346429
1 0.815789 0.307143 0.094737 0.339286
2 0.903947 0.690179 0.131579 0.341071
7 0.707895 0.681250 0.142105 0.362500
0 0.506579 0.683036 0.136842 0.330357
5 0.328947 0.688393 0.142105 0.348214
6 0.153947 0.678571 0.131579 0.357143
