4 0.403289 0.332143 0.114474 0.314286
4 0.818421 0.358929 0.136842 0.310714
33 0.671053 0.344643 0.134211 0.335714
3 0.791447 0.722321 0.148684 0.337500
8 0.615789 0.695536 0.128947 0.337500
9 0.430921 0.701786 0.127632 0.328571
1 0.235526 0.683036 0.105263 0.308929
5 0.268421 0.318750 0.126316 0.344643
