5 0.232895 0.340179 0.123684 0.341071
9 0.382237 0.346429 0.117105 0.300000
9 0.734211 0.683929 0.107895 0.296429
3 0.516447 0.700893 0.143421 0.326786
3 0.328947 0.712500 0.121053 0.307143
4 0.165789 0.725893 0.128947 0.351786
13 0.679605 0.328571 0.148684 0.317857
1 0.815789 0.315179 0.094737 0.319643
1 0.904605 0.677679 0.106579 0.348214
