7 0.282237 0.306250 0.138158 0.341071
1 0.407237 0.311607 0.075000 0.337500
1 0.340132 0.700893 0.093421 0.341071
1 0.184211 0.684821 0.094737 0.326786
3 0.508553 0.708036 0.130263 0.330357
4 0.696711 0.723214 0.117105 0.332143
5 0.863158 0.716071 0.121053 0.350000
11 0.659868 0.339286 0.106579 0.339286
1 0.785526 0.340179 0.086842 0.341071
