5 0.470513 0.509091 0.094872 0.533333
1 0.562821 0.515152 0.053846 0.545455
16 0.319872 0.536364 0.088462 0.539394
1 0.215385 0.527273 0.053846 0.533333
1 0.123077 0.509091 0.087179 0.569697
0 0.668590 0.487879 0.075641 0.527273
0 0.787821 0.490909 0.083333 0.545455
8 0.887821 0.469697 0.078205 0.539394
