0 0.435256 0.472727 0.111538 0.472727
10 0.271154 0.536364 0.103846 0.515152
8 0.157051 0.560606 0.096154 0.466667
4 0.048718 0.575758 0.094872 0.472727
2 0.547436 0.457576 0.097436 0.454545
8 0.664103 0.424242 0.087179 0.484848
6 0.802564 0.366667 0.107692 0.551515
6 0.914744 0.339394 0.098718 0.509091
