1 0.221154 0.593939 0.050000 0.557576
1 0.661538 0.457576 0.053846 0.515152
7 0.794231 0.409091 0.091026 0.539394
2 0.897436 0.390909 0.087179 0.551515
9 0.575000 0.472727 0.085897 0.581818
6 0.473718 0.512121 0.080769 0.539394
10 0.317308 0.542424 0.080769 0.551515
5 0.130128 0.596970 0.088462 0.551515
