4 0.585256 0.490909 0.080769 0.533333
2 0.698718 0.436364 0.100000 0.606061
7 0.843590 0.381818 0.102564 0.581818
5 0.954487 0.348485 0.091026 0.478788
0 0.473077 0.500000 0.097436 0.527273
15 0.308974 0.548485 0.105128 0.563636
1 0.182692 0.530303 0.055128 0.515152
5 0.078846 0.572727 0.101282 0.515152
