17 0.480392 0.478261 0.098039 0.565217
5 0.580882 0.467391 0.083333 0.543478
1 0.691176 0.434783 0.039216 0.608696
2 0.757353 0.402174 0.063725 0.543478
2 0.840686 0.445652 0.073529 0.543478
20 0.259804 0.510870 0.098039 0.543478
20 0.151961 0.521739 0.088235 0.565217
