35 0.193396 0.580000 0.113208 0.360000
16 0.294811 0.535000 0.108491 0.370000
16 0.483491 0.405000 0.070755 0.350000
6 0.573113 0.360000 0.089623 0.340000
3 0.655660 0.300000 0.075472 0.320000
2 0.738208 0.255000 0.089623 0.330000
21 0.863208 0.200000 0.094340 0.340000
