35 0.140909 0.437500 0.081818 0.553571
16 0.234091 0.455357 0.095455 0.589286
9 0.431818 0.464286 0.090909 0.571429
2 0.522727 0.464286 0.081818 0.607143
6 0.618182 0.473214 0.090909 0.589286
7 0.713636 0.500000 0.081818 0.571429
10 0.838636 0.508929 0.104545 0.625000
13 0.940909 0.500000 0.090909 0.607143
