11 0.804487 0.387500 0.083333 0.525000
22 0.913462 0.400000 0.096154 0.600000
19 0.269231 0.437500 0.089744 0.575000
11 0.163462 0.425000 0.070513 0.550000
2 0.474359 0.425000 0.089744 0.500000
8 0.570513 0.412500 0.064103 0.525000
6 0.669872 0.400000 0.108974 0.550000
