5 0.298026 0.246429 0.127632 0.342857
9 0.425658 0.258929 0.109211 0.371429
33 0.642105 0.277679 0.134211 0.362500
1 0.766447 0.297321 0.103947 0.358929
3 0.203947 0.631250 0.126316 0.348214
7 0.342105 0.659821 0.115789 0.398214
4 0.488158 0.670536 0.107895 0.391071
3 0.667105 0.690179 0.115789 0.391071
8 0.826974 0.705357 0.117105 0.407143
