5 0.236184 0.299107 0.143421 0.341071
9 0.382895 0.295536 0.136842 0.333929
17 0.661842 0.285714 0.144737 0.360714
1 0.796711 0.291071 0.111842 0.350000
3 0.143421 0.666071 0.126316 0.350000
5 0.326974 0.653571 0.159211 0.339286
4 0.499342 0.636607 0.135526 0.358929
6 0.713158 0.643750 0.139474 0.355357
0 0.891447 0.655357 0.151316 0.339286
