6 0.259211 0.281250 0.128947 0.355357
3 0.395395 0.278571 0.119737 0.367857
11 0.623026 0.287500 0.146053 0.371429
1 0.769737 0.291964 0.105263 0.362500
3 0.176316 0.658929 0.110526 0.332143
2 0.333553 0.658036 0.127632 0.344643
0 0.486842 0.656250 0.118421 0.333929
0 0.676316 0.658929 0.123684 0.350000
4 0.828289 0.662500 0.109211 0.360714
