5 0.258553 0.264286 0.114474 0.400000
9 0.387500 0.265179 0.114474 0.401786
20 0.640789 0.294643 0.128947 0.400000
1 0.763816 0.291964 0.098684 0.394643
8 0.157237 0.673214 0.125000 0.375000
3 0.474342 0.699107 0.114474 0.387500
0 0.668421 0.710714 0.121053 0.382143
1 0.819737 0.722321 0.094737 0.391071
