5 0.244737 0.368750 0.134211 0.323214
9 0.386184 0.363393 0.122368 0.330357
34 0.650658 0.334821 0.119737 0.337500
1 0.778947 0.321429 0.110526 0.321429
4 0.188158 0.750000 0.118421 0.335714
4 0.350658 0.749107 0.125000 0.344643
6 0.517763 0.712500 0.127632 0.314286
6 0.727632 0.697321 0.128947 0.316071
5 0.896053 0.684821 0.121053 0.312500
