5 0.258553 0.276786 0.130263 0.325000
9 0.386842 0.278571 0.121053 0.321429
14 0.621711 0.297321 0.127632 0.362500
1 0.740132 0.318750 0.096053 0.333929
5 0.176316 0.625000 0.128947 0.339286
3 0.326974 0.627679 0.114474 0.316071
1 0.467763 0.640179 0.111842 0.333929
2 0.650658 0.659821 0.119737 0.323214
7 0.801316 0.665179 0.123684 0.348214
