6 0.264474 0.357143 0.118421 0.307143
6 0.394737 0.352679 0.123684 0.301786
21 0.649342 0.346429 0.140789 0.303571
1 0.784211 0.334821 0.121053 0.294643
3 0.189474 0.700000 0.115789 0.303571
5 0.353289 0.691071 0.127632 0.303571
2 0.523684 0.691964 0.121053 0.316071
2 0.717105 0.682143 0.128947 0.296429
4 0.880921 0.677679 0.114474 0.316071
