6 0.261184 0.258929 0.122368 0.357143
0 0.388158 0.272321 0.118421 0.351786
11 0.618421 0.313393 0.118421 0.366071
8 0.746053 0.316964 0.118421 0.373214
1 0.161184 0.580357 0.151316 0.357143
3 0.302632 0.598214 0.123684 0.360714
7 0.450658 0.633929 0.130263 0.360714
0 0.628289 0.651786 0.132895 0.357143
5 0.787500 0.665179 0.132895 0.355357
