5 0.271711 0.275893 0.106579 0.337500
9 0.392105 0.286607 0.110526 0.341071
33 0.636184 0.323214 0.117105 0.339286
2 0.757237 0.338393 0.109211 0.344643
9 0.169737 0.635714 0.097368 0.296429
7 0.317763 0.652679 0.109211 0.323214
7 0.467105 0.664286 0.105263 0.332143
7 0.653947 0.691071 0.115789 0.328571
2 0.807895 0.713393 0.113158 0.326786
