5 0.253947 0.268750 0.147368 0.333929
9 0.382237 0.270536 0.127632 0.366071
25 0.621711 0.299107 0.125000 0.323214
2 0.757895 0.300893 0.123684 0.326786
2 0.174342 0.611607 0.122368 0.326786
9 0.328289 0.634821 0.130263 0.330357
7 0.471711 0.624107 0.125000 0.333929
2 0.663158 0.639286 0.147368 0.328571
9 0.823684 0.644643 0.142105 0.342857
