5 0.282895 0.244643 0.136842 0.385714
9 0.417763 0.267857 0.122368 0.400000
28 0.667105 0.276786 0.121053 0.410714
2 0.798684 0.288393 0.115789 0.408929
3 0.191447 0.680357 0.125000 0.375000
6 0.344737 0.686607 0.131579 0.401786
6 0.501974 0.689286 0.127632 0.407143
2 0.701316 0.703571 0.131579 0.410714
3 0.855921 0.717857 0.127632 0.417857
