5 0.251974 0.298214 0.117105 0.307143
9 0.375000 0.305357 0.107895 0.328571
28 0.618421 0.303571 0.110526 0.303571
2 0.751974 0.308036 0.117105 0.330357
0 0.169079 0.650893 0.125000 0.316071
8 0.320395 0.651786 0.111842 0.300000
3 0.473026 0.652679 0.103947 0.301786
3 0.665789 0.654464 0.105263 0.319643
8 0.815132 0.653571 0.098684 0.314286
