5 0.251316 0.291964 0.142105 0.348214
9 0.380263 0.301786 0.126316 0.350000
13 0.623026 0.314286 0.135526 0.360714
1 0.746711 0.309821 0.114474 0.362500
6 0.163816 0.637500 0.125000 0.342857
6 0.319079 0.648214 0.127632 0.339286
9 0.474342 0.649107 0.130263 0.362500
7 0.663816 0.660714 0.125000 0.353571
4 0.826974 0.660714 0.135526 0.371429
