5 0.203947 0.315179 0.139474 0.355357
9 0.355263 0.323214 0.144737 0.360714
12 0.619079 0.296429 0.140789 0.335714
2 0.761842 0.291964 0.139474 0.348214
5 0.122368 0.692857 0.139474 0.332143
2 0.294737 0.696429 0.157895 0.353571
7 0.463816 0.683036 0.135526 0.351786
9 0.676316 0.670536 0.150000 0.341071
5 0.850000 0.664286 0.147368 0.357143
