5 0.253289 0.298214 0.138158 0.339286
9 0.388816 0.294643 0.127632 0.353571
25 0.619737 0.306250 0.126316 0.358929
1 0.747368 0.299107 0.113158 0.369643
8 0.169737 0.670536 0.118421 0.341071
6 0.324342 0.666964 0.130263 0.333929
0 0.475000 0.666071 0.123684 0.350000
8 0.667105 0.666071 0.123684 0.325000
4 0.826316 0.669643 0.110526 0.357143
