5 0.275000 0.280357 0.107895 0.328571
9 0.401316 0.284821 0.110526 0.341071
12 0.649342 0.306250 0.117105 0.323214
1 0.765132 0.313393 0.096053 0.333929
7 0.166447 0.633036 0.103947 0.319643
0 0.323026 0.650000 0.111842 0.328571
7 0.481579 0.658036 0.110526 0.326786
7 0.678947 0.677679 0.121053 0.341071
3 0.828289 0.693750 0.119737 0.351786
