5 0.220395 0.312500 0.151316 0.360714
9 0.371053 0.310714 0.134211 0.364286
25 0.616447 0.296429 0.130263 0.350000
1 0.747368 0.296429 0.131579 0.350000
2 0.165132 0.695536 0.143421 0.348214
4 0.329605 0.687500 0.138158 0.346429
4 0.476316 0.668750 0.131579 0.362500
9 0.677632 0.648214 0.152632 0.357143
7 0.838816 0.657143 0.125000 0.360714
