8 0.236842 0.297321 0.128947 0.323214
3 0.372368 0.291964 0.126316 0.351786
25 0.603947 0.300000 0.139474 0.346429
1 0.753289 0.308036 0.125000 0.344643
9 0.149342 0.688393 0.132895 0.333929
9 0.304605 0.682143 0.132895 0.346429
6 0.463816 0.680357 0.130263 0.353571
9 0.668421 0.677679 0.144737 0.319643
6 0.834868 0.676786 0.127632 0.371429
