5 0.232237 0.338393 0.125000 0.301786
9 0.366447 0.342857 0.111842 0.303571
13 0.639474 0.333036 0.126316 0.301786
1 0.767763 0.332143 0.098684 0.303571
6 0.142105 0.676786 0.118421 0.310714
2 0.310526 0.671429 0.123684 0.321429
7 0.476316 0.669643 0.113158 0.303571
8 0.701974 0.663393 0.111842 0.301786
7 0.869737 0.659821 0.113158 0.301786
