5 0.259211 0.293750 0.139474 0.319643
4 0.406579 0.305357 0.123684 0.335714
28 0.692763 0.291964 0.122368 0.362500
7 0.829605 0.296429 0.125000 0.342857
3 0.254605 0.666964 0.135526 0.337500
2 0.447368 0.673214 0.139474 0.339286
1 0.631579 0.681250 0.128947 0.337500
1 0.817763 0.685714 0.140789 0.350000
