7 0.230263 0.328571 0.131579 0.314286
8 0.375658 0.332143 0.138158 0.300000
17 0.660526 0.332143 0.147368 0.300000
1 0.813158 0.325000 0.123684 0.296429
0 0.136842 0.680357 0.147368 0.285714
2 0.318421 0.679464 0.144737 0.301786
1 0.498026 0.678571 0.132895 0.310714
3 0.723684 0.672321 0.131579 0.287500
3 0.892763 0.673214 0.140789 0.314286
