5 0.049359 0.530303 0.093590 0.551515
1 0.155769 0.524242 0.085897 0.551515
16 0.265385 0.466667 0.107692 0.581818
4 0.434615 0.463636 0.100000 0.612121
7 0.540385 0.406061 0.101282 0.581818
2 0.662821 0.390909 0.110256 0.587879
8 0.808974 0.357576 0.100000 0.557576
1 0.918590 0.363636 0.093590 0.593939
