5 0.040385 0.557576 0.078205 0.557576
1 0.150641 0.524242 0.085897 0.527273
10 0.269872 0.521212 0.103846 0.533333
8 0.441667 0.472727 0.106410 0.496970
9 0.551923 0.448485 0.093590 0.496970
7 0.663462 0.406061 0.096154 0.472727
1 0.808974 0.400000 0.084615 0.569697
4 0.923077 0.400000 0.100000 0.569697
