5 0.089103 0.533333 0.098718 0.618182
1 0.198077 0.524242 0.078205 0.624242
16 0.313462 0.518182 0.096154 0.636364
5 0.476282 0.509091 0.101282 0.630303
1 0.580769 0.512121 0.069231 0.624242
0 0.689744 0.490909 0.100000 0.593939
0 0.825000 0.493939 0.091026 0.600000
8 0.933974 0.466667 0.093590 0.606061
