35 0.191176 0.547297 0.111765 0.500000
16 0.311765 0.520270 0.129412 0.445946
3 0.520588 0.412162 0.123529 0.527027
1 0.620588 0.391892 0.088235 0.486486
2 0.708824 0.351351 0.100000 0.513514
31 0.832353 0.304054 0.088235 0.418919
35 0.923529 0.263514 0.105882 0.472973
