35 0.133333 0.478261 0.111111 0.652174
16 0.244444 0.467391 0.100000 0.630435
1 0.463889 0.467391 0.094444 0.673913
6 0.569444 0.456522 0.105556 0.695652
0 0.677778 0.445652 0.100000 0.673913
13 0.841667 0.467391 0.105556 0.673913
30 0.944444 0.456522 0.100000 0.695652
