5 0.255263 0.291964 0.118421 0.326786
1 0.373026 0.288393 0.109211 0.351786
28 0.647368 0.281250 0.110526 0.362500
2 0.773026 0.277679 0.125000 0.355357
5 0.257895 0.676786 0.118421 0.335714
0 0.432895 0.678571 0.115789 0.342857
1 0.594737 0.672321 0.102632 0.326786
3 0.776316 0.666071 0.128947 0.328571
