5 0.242763 0.275000 0.127632 0.357143
2 0.375000 0.275000 0.123684 0.357143
15 0.613158 0.243750 0.121053 0.337500
6 0.744737 0.241071 0.126316 0.350000
4 0.259868 0.683929 0.111842 0.360714
3 0.423684 0.666964 0.123684 0.330357
7 0.582895 0.645536 0.118421 0.351786
8 0.757895 0.642857 0.123684 0.364286
