5 0.206579 0.277679 0.136842 0.358929
9 0.348684 0.277679 0.131579 0.366071
25 0.634868 0.273214 0.125000 0.360714
1 0.770395 0.273214 0.122368 0.357143
1 0.106579 0.701786 0.121053 0.357143
7 0.290132 0.684821 0.138158 0.376786
9 0.471711 0.679464 0.138158 0.362500
8 0.695395 0.678571 0.132895 0.357143
0 0.873026 0.675893 0.132895 0.369643
