5 0.236184 0.291964 0.127632 0.355357
9 0.365132 0.285714 0.127632 0.360714
15 0.615789 0.254464 0.123684 0.358929
1 0.738158 0.246429 0.115789 0.342857
4 0.188158 0.716964 0.144737 0.355357
9 0.336184 0.694643 0.146053 0.342857
2 0.492763 0.676786 0.140789 0.346429
7 0.684868 0.639286 0.122368 0.357143
1 0.830263 0.634821 0.123684 0.351786
