5 0.258553 0.292857 0.109211 0.339286
9 0.374342 0.297321 0.103947 0.355357
21 0.607237 0.303571 0.119737 0.357143
2 0.733553 0.299107 0.111842 0.369643
0 0.171711 0.694643 0.111842 0.342857
5 0.320395 0.691071 0.114474 0.364286
4 0.462500 0.700893 0.101316 0.355357
4 0.653947 0.708929 0.102632 0.360714
2 0.805263 0.708036 0.118421 0.362500
