5 0.241447 0.226786 0.117105 0.371429
9 0.369079 0.248214 0.111842 0.364286
23 0.634868 0.259821 0.127632 0.383929
1 0.755921 0.265179 0.101316 0.383929
7 0.138816 0.652679 0.122368 0.380357
6 0.294737 0.665179 0.126316 0.369643
6 0.455921 0.670536 0.111842 0.376786
5 0.669079 0.678571 0.130263 0.385714
4 0.817105 0.700000 0.121053 0.396429
