5 0.265789 0.279464 0.118421 0.333929
9 0.394737 0.275000 0.118421 0.339286
29 0.644737 0.255357 0.123684 0.360714
1 0.766447 0.254464 0.106579 0.351786
8 0.188816 0.687500 0.117105 0.346429
8 0.348026 0.675893 0.125000 0.344643
8 0.508553 0.665179 0.122368 0.348214
0 0.709868 0.659821 0.122368 0.341071
8 0.867105 0.650893 0.115789 0.337500
