5 0.282237 0.232143 0.117105 0.328571
4 0.398684 0.241964 0.100000 0.337500
30 0.651974 0.256250 0.127632 0.326786
5 0.784211 0.261607 0.128947 0.355357
1 0.244737 0.605357 0.097368 0.321429
2 0.416447 0.616071 0.130263 0.321429
2 0.590789 0.639286 0.113158 0.321429
3 0.757237 0.649107 0.109211 0.308929
