5 0.248026 0.290179 0.117105 0.337500
9 0.373026 0.291071 0.117105 0.339286
14 0.619737 0.283929 0.118421 0.342857
1 0.736184 0.281250 0.096053 0.333929
1 0.173684 0.687500 0.100000 0.339286
7 0.325658 0.675000 0.119737 0.367857
9 0.483553 0.675893 0.117105 0.344643
3 0.682895 0.670536 0.121053 0.333929
6 0.828947 0.660714 0.123684 0.350000
