6 0.198684 0.275893 0.139474 0.341071
2 0.342105 0.275893 0.126316 0.337500
31 0.615132 0.250893 0.132895 0.330357
1 0.764474 0.245536 0.118421 0.326786
6 0.220395 0.666964 0.146053 0.333929
8 0.401316 0.656250 0.139474 0.341071
1 0.600658 0.648214 0.125000 0.346429
4 0.780263 0.639286 0.152632 0.346429
