5 0.259211 0.251786 0.118421 0.350000
9 0.384211 0.258036 0.110526 0.376786
31 0.643421 0.267857 0.110526 0.350000
1 0.755263 0.283036 0.100000 0.355357
8 0.156579 0.647321 0.110526 0.344643
9 0.315132 0.650000 0.117105 0.335714
1 0.456579 0.652679 0.102632 0.323214
5 0.673684 0.675893 0.118421 0.362500
8 0.826316 0.690179 0.115789 0.369643
