5 0.224342 0.286607 0.127632 0.362500
4 0.357895 0.292857 0.115789 0.367857
28 0.618421 0.275893 0.123684 0.358929
5 0.752632 0.263393 0.123684 0.369643
5 0.239474 0.722321 0.121053 0.355357
0 0.411842 0.712500 0.131579 0.375000
3 0.591447 0.700893 0.132895 0.373214
6 0.761184 0.691964 0.132895 0.362500
