5 0.241447 0.305357 0.146053 0.310714
9 0.375658 0.290179 0.130263 0.316071
15 0.632237 0.258036 0.125000 0.326786
1 0.758553 0.237500 0.122368 0.335714
5 0.189474 0.688393 0.128947 0.330357
8 0.346053 0.677679 0.134211 0.333929
4 0.516447 0.662500 0.140789 0.328571
0 0.717763 0.633036 0.138158 0.323214
5 0.876316 0.605357 0.128947 0.346429
