5 0.236184 0.225000 0.127632 0.346429
9 0.373026 0.236607 0.122368 0.355357
33 0.646053 0.262500 0.118421 0.375000
2 0.786842 0.280357 0.126316 0.371429
7 0.123684 0.613393 0.126316 0.369643
8 0.288158 0.628571 0.123684 0.367857
8 0.457237 0.649107 0.117105 0.376786
4 0.669079 0.681250 0.122368 0.344643
8 0.849342 0.697321 0.127632 0.337500
