5 0.189474 0.358929 0.160526 0.271429
1 0.327632 0.357143 0.100000 0.267857
17 0.626974 0.337500 0.148684 0.300000
4 0.779605 0.331250 0.130263 0.280357
8 0.216447 0.681250 0.140789 0.255357
3 0.419079 0.670536 0.143421 0.262500
5 0.605263 0.657143 0.152632 0.292857
4 0.803289 0.645536 0.151316 0.283929
