5 0.221053 0.308929 0.136842 0.325000
9 0.359211 0.320536 0.121053 0.326786
29 0.625000 0.312500 0.134211 0.335714
1 0.758553 0.308929 0.114474 0.317857
5 0.143421 0.674107 0.142105 0.316071
9 0.307895 0.671429 0.136842 0.296429
9 0.477632 0.670536 0.136842 0.308929
7 0.683553 0.659821 0.130263 0.308929
3 0.850658 0.659821 0.130263 0.305357
