5 0.226316 0.291071 0.113158 0.300000
9 0.359211 0.300000 0.121053 0.303571
21 0.607895 0.313393 0.128947 0.333929
2 0.743421 0.309821 0.115789 0.312500
2 0.136184 0.644643 0.117105 0.307143
7 0.293421 0.651786 0.115789 0.310714
3 0.447368 0.659821 0.126316 0.301786
4 0.648026 0.660714 0.119737 0.314286
5 0.811184 0.660714 0.127632 0.303571
