6 0.227632 0.317857 0.150000 0.289286
0 0.376316 0.313393 0.136842 0.280357
11 0.657895 0.308036 0.139474 0.316071
5 0.804605 0.306250 0.130263 0.312500
3 0.134211 0.659821 0.150000 0.305357
1 0.313816 0.652679 0.117105 0.308929
4 0.497368 0.656250 0.147368 0.312500
0 0.730263 0.648214 0.152632 0.292857
2 0.915789 0.645536 0.147368 0.308929
