5 0.253947 0.320536 0.152632 0.287500
9 0.397368 0.318750 0.123684 0.291071
12 0.661184 0.285714 0.138158 0.300000
2 0.799342 0.277679 0.125000 0.294643
5 0.189474 0.666964 0.152632 0.280357
1 0.345395 0.656250 0.119737 0.283929
1 0.500000 0.639286 0.128947 0.296429
0 0.734868 0.616071 0.138158 0.307143
9 0.898026 0.596429 0.140789 0.289286
