5 0.098077 0.539394 0.096154 0.496970
1 0.198077 0.524242 0.062821 0.478788
15 0.303205 0.490909 0.098718 0.509091
1 0.453846 0.463636 0.064103 0.539394
5 0.568590 0.424242 0.098718 0.496970
5 0.671154 0.403030 0.088462 0.515152
8 0.798718 0.363636 0.094872 0.484848
5 0.906410 0.342424 0.097436 0.490909
