6 0.215132 0.316964 0.156579 0.305357
2 0.376316 0.324107 0.150000 0.308929
20 0.654605 0.316071 0.148684 0.317857
1 0.814474 0.319643 0.118421 0.321429
1 0.111842 0.643750 0.144737 0.273214
7 0.294737 0.650000 0.160526 0.289286
9 0.491447 0.641964 0.156579 0.283929
2 0.726316 0.644643 0.155263 0.282143
9 0.911184 0.651786 0.156579 0.285714
