5 0.252632 0.284821 0.131579 0.341071
9 0.386184 0.290179 0.117105 0.319643
28 0.636184 0.311607 0.122368 0.351786
1 0.753947 0.324107 0.081579 0.333929
9 0.157895 0.649107 0.121053 0.333929
5 0.310526 0.660714 0.121053 0.332143
7 0.469737 0.683036 0.123684 0.326786
6 0.667763 0.699107 0.119737 0.330357
2 0.830263 0.708929 0.121053 0.332143
