9 0.205263 0.308929 0.139474 0.310714
3 0.347368 0.316071 0.118421 0.314286
25 0.609211 0.323214 0.139474 0.314286
1 0.751974 0.318750 0.106579 0.298214
0 0.109211 0.649107 0.126316 0.301786
6 0.278289 0.659821 0.143421 0.298214
3 0.450658 0.666071 0.138158 0.307143
1 0.660526 0.674107 0.110526 0.305357
2 0.842105 0.668750 0.134211 0.316071
