5 0.269079 0.292857 0.119737 0.335714
1 0.388158 0.306250 0.089474 0.312500
21 0.650658 0.351786 0.114474 0.346429
5 0.797368 0.364286 0.131579 0.328571
4 0.231579 0.659821 0.113158 0.330357
5 0.413816 0.682143 0.135526 0.332143
2 0.586184 0.707143 0.127632 0.314286
0 0.761184 0.715179 0.125000 0.291071
