6 0.267763 0.304464 0.117105 0.287500
3 0.388158 0.303571 0.113158 0.292857
11 0.620395 0.283036 0.127632 0.301786
7 0.744079 0.279464 0.103947 0.301786
0 0.198026 0.639286 0.125000 0.321429
3 0.358553 0.643750 0.119737 0.287500
3 0.497368 0.634821 0.121053 0.294643
2 0.688158 0.625000 0.123684 0.289286
3 0.842763 0.614286 0.106579 0.289286
