5 0.239474 0.291964 0.123684 0.283929
1 0.367105 0.308929 0.102632 0.285714
21 0.629605 0.346429 0.127632 0.314286
4 0.776974 0.357143 0.140789 0.300000
1 0.191447 0.615179 0.082895 0.269643
1 0.381579 0.633929 0.097368 0.285714
3 0.567763 0.659821 0.125000 0.276786
8 0.752632 0.674107 0.126316 0.273214
