5 0.236184 0.306250 0.135526 0.291071
9 0.375658 0.321429 0.125000 0.278571
28 0.649342 0.333036 0.127632 0.291071
1 0.780921 0.330357 0.101316 0.289286
5 0.143421 0.640179 0.131579 0.291071
9 0.312500 0.641071 0.138158 0.282143
4 0.480921 0.650893 0.135526 0.280357
8 0.700000 0.652679 0.142105 0.294643
4 0.867763 0.648214 0.138158 0.300000
