5 0.277632 0.258036 0.115789 0.344643
4 0.407895 0.265179 0.121053 0.330357
15 0.665132 0.276786 0.130263 0.350000
2 0.800000 0.287500 0.105263 0.346429
4 0.257895 0.641964 0.121053 0.348214
1 0.426316 0.656250 0.086842 0.344643
0 0.614474 0.662500 0.118421 0.332143
6 0.778947 0.679464 0.126316 0.355357
