5 0.250000 0.295536 0.136842 0.351786
9 0.399342 0.293750 0.130263 0.348214
14 0.680921 0.290179 0.140789 0.373214
1 0.812500 0.283036 0.103947 0.376786
5 0.171053 0.703571 0.126316 0.350000
0 0.342105 0.703571 0.128947 0.350000
9 0.515789 0.696429 0.136842 0.350000
8 0.742763 0.684821 0.130263 0.351786
8 0.916447 0.682143 0.119737 0.353571
