5 0.242763 0.262500 0.125000 0.350000
29 0.641447 0.262500 0.127632 0.360714
1 0.765132 0.274107 0.098684 0.351786
5 0.152632 0.668750 0.123684 0.358929
1 0.303289 0.672321 0.101316 0.351786
0 0.479605 0.661607 0.127632 0.348214
0 0.688816 0.661607 0.122368 0.337500
2 0.850000 0.659821 0.139474 0.351786
9 0.378289 0.271429 0.119737 0.350000
