7 0.210526 0.279464 0.121053 0.333929
9 0.351316 0.274107 0.123684 0.319643
35 0.613816 0.272321 0.127632 0.323214
1 0.739474 0.275893 0.084211 0.323214
5 0.224342 0.652679 0.127632 0.319643
8 0.398026 0.647321 0.130263 0.316071
0 0.578289 0.648214 0.125000 0.303571
4 0.762500 0.650893 0.122368 0.316071
