7 0.213816 0.255357 0.140789 0.392857
8 0.358553 0.252679 0.132895 0.366071
14 0.619737 0.243750 0.144737 0.369643
1 0.757237 0.249107 0.096053 0.376786
2 0.130263 0.681250 0.136842 0.369643
4 0.306579 0.676786 0.136842 0.389286
1 0.474342 0.675893 0.098684 0.373214
1 0.685526 0.666964 0.100000 0.380357
3 0.852632 0.668750 0.128947 0.362500
