6 0.251316 0.239286 0.131579 0.364286
0 0.390789 0.240179 0.123684 0.373214
11 0.650658 0.245536 0.130263 0.383929
2 0.789474 0.255357 0.118421 0.378571
2 0.153947 0.665179 0.123684 0.351786
3 0.326974 0.666071 0.109211 0.371429
5 0.484868 0.664286 0.130263 0.364286
6 0.696711 0.661607 0.117105 0.362500
7 0.865132 0.663393 0.125000 0.376786
