5 0.228947 0.258929 0.144737 0.357143
9 0.369079 0.264286 0.117105 0.357143
15 0.634211 0.272321 0.142105 0.358929
1 0.765132 0.292857 0.096053 0.367857
1 0.109211 0.651786 0.092105 0.335714
2 0.286842 0.658036 0.123684 0.341071
3 0.465132 0.685714 0.127632 0.357143
2 0.673026 0.687500 0.127632 0.342857
9 0.843421 0.691071 0.128947 0.364286
