5 0.236184 0.253571 0.125000 0.353571
9 0.384211 0.257143 0.128947 0.360714
30 0.671711 0.262500 0.127632 0.364286
1 0.806579 0.272321 0.094737 0.366071
5 0.131579 0.661607 0.128947 0.366071
1 0.298684 0.671429 0.105263 0.353571
7 0.482237 0.671429 0.151316 0.392857
7 0.710526 0.667857 0.131579 0.375000
1 0.869737 0.676786 0.110526 0.360714
