7 0.242763 0.273214 0.117105 0.321429
9 0.380263 0.266071 0.123684 0.332143
35 0.617763 0.238393 0.143421 0.358929
1 0.761184 0.225893 0.119737 0.348214
1 0.189474 0.667857 0.107895 0.328571
0 0.349342 0.654464 0.119737 0.319643
1 0.501974 0.645536 0.096053 0.333929
8 0.707237 0.624107 0.135526 0.326786
4 0.861184 0.602679 0.125000 0.344643
