5 0.246032 0.561538 0.089947 0.461538
11 0.341270 0.550000 0.079365 0.438462
2 0.433862 0.534615 0.084656 0.453846
8 0.605820 0.492308 0.079365 0.446154
8 0.682540 0.476923 0.074074 0.461538
9 0.753968 0.457692 0.068783 0.469231
3 0.820106 0.442308 0.074074 0.438462
