1 0.222535 0.463415 0.050704 0.422764
11 0.292958 0.463415 0.067606 0.422764
9 0.374648 0.467480 0.067606 0.430894
4 0.540845 0.479675 0.061972 0.439024
6 0.619718 0.495935 0.073239 0.439024
8 0.698592 0.500000 0.067606 0.430894
6 0.783099 0.508130 0.078873 0.447154
