5 0.250000 0.621795 0.080357 0.397436
11 0.337054 0.596154 0.075893 0.371795
1 0.421875 0.564103 0.066964 0.358974
1 0.589286 0.487179 0.071429 0.358974
1 0.669643 0.455128 0.071429 0.346154
1 0.816964 0.384615 0.071429 0.358974
8 0.743304 0.416667 0.066964 0.371795
