8 0.250000 0.541667 0.068421 0.458333
7 0.402632 0.552083 0.068421 0.479167
9 0.571053 0.510417 0.078947 0.479167
6 0.652632 0.510417 0.073684 0.479167
9 0.731579 0.510417 0.073684 0.479167
7 0.807895 0.510417 0.068421 0.520833
11 0.328947 0.541667 0.068421 0.500000
