5 0.247967 0.550926 0.067751 0.435185
12 0.323848 0.537037 0.062331 0.425926
4 0.394309 0.537037 0.062331 0.462963
8 0.566396 0.564815 0.065041 0.444444
3 0.643631 0.564815 0.067751 0.425926
0 0.723577 0.564815 0.070461 0.425926
6 0.806233 0.569444 0.067751 0.416667
