2 0.232026 0.556000 0.078431 0.440000
11 0.313725 0.544000 0.078431 0.448000
1 0.401961 0.520000 0.065359 0.448000
3 0.576797 0.480000 0.075163 0.432000
5 0.655229 0.472000 0.075163 0.432000
7 0.735294 0.464000 0.078431 0.448000
9 0.816993 0.428000 0.071895 0.424000
