8 0.665816 0.491935 0.076531 0.403226
7 0.244898 0.580645 0.071429 0.419355
11 0.331633 0.556452 0.071429 0.403226
1 0.420918 0.548387 0.066327 0.419355
1 0.589286 0.508065 0.066327 0.403226
5 0.744898 0.475806 0.061224 0.403226
9 0.823980 0.459677 0.076531 0.403226
