8 0.239623 0.486301 0.064151 0.424658
11 0.320755 0.486301 0.075472 0.479452
7 0.400000 0.472603 0.067925 0.479452
1 0.583019 0.431507 0.064151 0.452055
1 0.830189 0.404110 0.060377 0.424658
4 0.666038 0.424658 0.064151 0.465753
0 0.747170 0.397260 0.075472 0.465753
