4 0.237374 0.525000 0.070707 0.483333
10 0.315657 0.525000 0.065657 0.516667
15 0.396465 0.525000 0.075758 0.483333
9 0.568182 0.500000 0.075758 0.466667
5 0.651515 0.500000 0.070707 0.500000
5 0.732323 0.508333 0.070707 0.483333
3 0.813131 0.500000 0.070707 0.466667
