0 0.577532 0.500000 0.079114 0.410959
3 0.240506 0.585616 0.075949 0.404110
10 0.325949 0.575342 0.069620 0.410959
18 0.400316 0.537671 0.047468 0.431507
8 0.659810 0.476027 0.066456 0.404110
5 0.737342 0.455479 0.075949 0.417808
1 0.819620 0.431507 0.063291 0.424658
