7 0.216292 0.452830 0.084270 0.415094
7 0.814607 0.599057 0.078652 0.424528
11 0.303371 0.476415 0.078652 0.405660
1 0.387640 0.495283 0.078652 0.405660
0 0.556180 0.533019 0.089888 0.405660
3 0.651685 0.566038 0.078652 0.415094
0 0.733146 0.580189 0.084270 0.443396
