4 0.257679 0.537234 0.064846 0.436170
10 0.336177 0.542553 0.064846 0.425532
35 0.419795 0.542553 0.068259 0.446809
3 0.592150 0.542553 0.064846 0.425532
8 0.670648 0.542553 0.064846 0.425532
0 0.745734 0.542553 0.064846 0.425532
2 0.820819 0.542553 0.064846 0.425532
