9 0.665517 0.543860 0.075862 0.350877
5 0.244828 0.359649 0.075862 0.333333
11 0.327586 0.394737 0.075862 0.333333
8 0.413793 0.429825 0.068966 0.333333
8 0.831034 0.605263 0.075862 0.333333
2 0.579310 0.526316 0.082759 0.385965
0 0.748276 0.570175 0.075862 0.333333
