9 0.240157 0.432161 0.064567 0.391960
11 0.314961 0.444724 0.075591 0.396985
9 0.396850 0.484925 0.069291 0.407035
8 0.566929 0.522613 0.072441 0.402010
7 0.650394 0.552764 0.075591 0.442211
7 0.725984 0.577889 0.075591 0.452261
7 0.815748 0.595477 0.088189 0.417085
