3 0.227011 0.486301 0.074713 0.424658
20 0.304598 0.493151 0.080460 0.438356
2 0.382184 0.500000 0.074713 0.424658
2 0.724138 0.541096 0.068966 0.452055
9 0.566092 0.520548 0.074713 0.438356
9 0.813218 0.534247 0.074713 0.438356
7 0.649425 0.527397 0.080460 0.479452
