9 0.246537 0.551913 0.083102 0.382514
11 0.333795 0.540984 0.085873 0.404372
1 0.427978 0.505464 0.069252 0.409836
3 0.601108 0.456284 0.072022 0.387978
9 0.685596 0.434426 0.080332 0.387978
7 0.759003 0.418033 0.060942 0.387978
3 0.843490 0.398907 0.074792 0.393443
