6 0.240040 0.505495 0.073705 0.461538
11 0.325697 0.497253 0.069721 0.456044
8 0.410359 0.486264 0.067729 0.445055
9 0.586653 0.472527 0.069721 0.428571
3 0.666335 0.475275 0.065737 0.434066
5 0.745020 0.458791 0.059761 0.423077
8 0.820717 0.461538 0.067729 0.428571
