5 0.822057 0.382576 0.077131 0.371212
11 0.332882 0.562500 0.075778 0.382576
8 0.418133 0.534091 0.081191 0.378788
9 0.594723 0.473485 0.066306 0.378788
5 0.670501 0.441288 0.069012 0.382576
4 0.749662 0.410985 0.075778 0.390152
7 0.244249 0.602273 0.071719 0.401515
