4 0.225415 0.393581 0.067688 0.415541
4 0.815453 0.606419 0.080460 0.422297
11 0.294381 0.425676 0.077905 0.398649
9 0.375479 0.459459 0.074074 0.391892
9 0.643040 0.547297 0.077905 0.412162
6 0.554917 0.527027 0.077905 0.412162
1 0.727969 0.579392 0.056194 0.422297
