7 0.208333 0.594771 0.097222 0.431373
11 0.302083 0.568627 0.083333 0.418301
1 0.395833 0.539216 0.069444 0.424837
4 0.569444 0.483660 0.069444 0.418301
0 0.647569 0.457516 0.072917 0.418301
9 0.730903 0.434641 0.079861 0.411765
5 0.819444 0.401961 0.083333 0.424837
