7 0.245856 0.550388 0.071823 0.449612
7 0.411602 0.511628 0.071823 0.434109
7 0.665746 0.480620 0.071823 0.449612
11 0.328729 0.523256 0.077348 0.441860
2 0.587017 0.492248 0.069061 0.441860
2 0.750000 0.484496 0.069061 0.426357
9 0.824586 0.468992 0.069061 0.426357
