7 0.234375 0.540000 0.078125 0.466667
11 0.312500 0.520000 0.070312 0.453333
1 0.398438 0.493333 0.062500 0.453333
4 0.566406 0.480000 0.070312 0.453333
0 0.644531 0.446667 0.070312 0.440000
9 0.722656 0.446667 0.070312 0.440000
5 0.806641 0.440000 0.082031 0.480000
