9 0.242308 0.562500 0.069231 0.406250
11 0.323077 0.550781 0.069231 0.429688
2 0.411538 0.519531 0.076923 0.398438
9 0.590385 0.472656 0.073077 0.398438
2 0.671154 0.457031 0.065385 0.414062
7 0.748077 0.433594 0.065385 0.414062
4 0.825000 0.406250 0.073077 0.406250
