2 0.232172 0.431452 0.066335 0.403226
11 0.310116 0.447581 0.066335 0.403226
7 0.388889 0.473790 0.071310 0.399194
6 0.569652 0.542339 0.074627 0.423387
6 0.650912 0.560484 0.071310 0.403226
8 0.735489 0.580645 0.074627 0.403226
6 0.819237 0.604839 0.069652 0.435484
