6 0.737762 0.558052 0.073427 0.404494
8 0.252622 0.441948 0.064685 0.374532
8 0.401224 0.483146 0.061189 0.382022
29 0.327797 0.460674 0.068182 0.404494
4 0.565559 0.522472 0.078671 0.408240
0 0.651224 0.543071 0.071678 0.389513
5 0.826049 0.574906 0.078671 0.415730
