3 0.264331 0.517123 0.074310 0.458904
35 0.349257 0.513699 0.078556 0.479452
6 0.433121 0.513699 0.067941 0.465753
3 0.608280 0.493151 0.074310 0.465753
1 0.687898 0.496575 0.055202 0.486301
8 0.765393 0.482877 0.065817 0.445205
7 0.841826 0.479452 0.065817 0.479452
