9 0.255236 0.491935 0.070681 0.467742
11 0.337696 0.500000 0.083770 0.483871
1 0.431937 0.504032 0.057592 0.491935
4 0.592932 0.520161 0.065445 0.475806
1 0.668848 0.512097 0.070681 0.459677
1 0.746073 0.512097 0.047120 0.475806
5 0.814136 0.520161 0.062827 0.475806
