11 0.309524 0.469697 0.069597 0.434343
6 0.236264 0.449495 0.062271 0.434343
6 0.642857 0.570707 0.069597 0.454545
6 0.805861 0.611111 0.073260 0.474747
1 0.728938 0.585859 0.058608 0.484848
4 0.565934 0.550505 0.069597 0.474747
2 0.390110 0.505051 0.069597 0.464646
