9 0.250000 0.586842 0.083333 0.394737
11 0.334559 0.552632 0.085784 0.389474
3 0.422794 0.531579 0.080882 0.400000
0 0.591912 0.468421 0.080882 0.378947
0 0.669118 0.450000 0.073529 0.384211
3 0.738971 0.421053 0.075980 0.378947
4 0.818627 0.394737 0.063725 0.368421
