15 0.204225 0.522152 0.066901 0.436709
22 0.285211 0.528481 0.077465 0.436709
27 0.362676 0.522152 0.070423 0.424051
4 0.529930 0.534810 0.073944 0.436709
4 0.608275 0.525316 0.065141 0.430380
3 0.727113 0.518987 0.066901 0.430380
7 0.805458 0.525316 0.065141 0.430380
