7 0.239362 0.489247 0.074468 0.462366
11 0.322695 0.494624 0.070922 0.473118
1 0.402482 0.510753 0.053191 0.462366
4 0.572695 0.526882 0.074468 0.451613
1 0.647163 0.537634 0.060284 0.451613
5 0.725177 0.548387 0.074468 0.430108
6 0.806738 0.553763 0.067376 0.440860
