5 0.252847 0.542857 0.072893 0.442857
11 0.334852 0.535714 0.072893 0.428571
2 0.417995 0.517857 0.070615 0.435714
9 0.589977 0.485714 0.068337 0.428571
6 0.668565 0.478571 0.066059 0.414286
7 0.746014 0.471429 0.066059 0.442857
0 0.820046 0.457143 0.063781 0.414286
