4 0.238717 0.446918 0.064133 0.407534
11 0.309976 0.462329 0.068884 0.431507
4 0.391330 0.489726 0.070071 0.431507
6 0.557601 0.522260 0.065321 0.414384
6 0.637767 0.544521 0.066508 0.404110
9 0.721496 0.558219 0.072447 0.404110
4 0.807007 0.587329 0.072447 0.441781
