4 0.235606 0.544444 0.080303 0.409524
11 0.329545 0.534921 0.080303 0.409524
4 0.415152 0.522222 0.081818 0.409524
2 0.602273 0.487302 0.083333 0.403175
0 0.681818 0.473016 0.075758 0.387302
2 0.759091 0.458730 0.072727 0.390476
9 0.827273 0.441270 0.075758 0.387302
