9 0.230318 0.495495 0.068677 0.405405
11 0.301508 0.490991 0.067002 0.423423
7 0.373534 0.493243 0.070352 0.427928
8 0.551926 0.495495 0.072027 0.414414
7 0.633166 0.493243 0.073702 0.436937
0 0.723618 0.490991 0.077052 0.405405
1 0.810720 0.490991 0.063652 0.432432
