9 0.176136 0.425000 0.079545 0.400000
11 0.284091 0.462500 0.090909 0.475000
4 0.386364 0.437500 0.090909 0.425000
3 0.590909 0.425000 0.090909 0.450000
1 0.687500 0.425000 0.079545 0.500000
0 0.778409 0.425000 0.079545 0.450000
1 0.863636 0.437500 0.090909 0.475000
