7 0.256757 0.555085 0.074324 0.449153
11 0.337838 0.550847 0.067568 0.440678
2 0.418919 0.529661 0.074324 0.432203
7 0.586149 0.504237 0.077703 0.449153
1 0.665541 0.491525 0.054054 0.440678
5 0.743243 0.478814 0.067568 0.432203
0 0.819257 0.461864 0.070946 0.415254
