8 0.231579 0.528846 0.073684 0.442308
11 0.313158 0.519231 0.068421 0.423077
9 0.392105 0.509615 0.068421 0.442308
0 0.557895 0.480769 0.073684 0.461538
1 0.636842 0.480769 0.063158 0.461538
6 0.713158 0.480769 0.078947 0.461538
4 0.792105 0.461538 0.068421 0.461538
