4 0.243590 0.434211 0.071225 0.412281
4 0.726496 0.543860 0.074074 0.421053
11 0.316239 0.442982 0.074074 0.412281
8 0.396011 0.460526 0.068376 0.394737
3 0.565527 0.504386 0.065527 0.377193
9 0.642450 0.513158 0.065527 0.394737
0 0.800570 0.557018 0.068376 0.394737
