5 0.235772 0.509259 0.070461 0.462963
12 0.311653 0.509259 0.065041 0.425926
4 0.388889 0.509259 0.067751 0.444444
8 0.554201 0.523148 0.073171 0.453704
3 0.636856 0.513889 0.070461 0.435185
0 0.715447 0.518519 0.070461 0.425926
6 0.796748 0.527778 0.070461 0.444444
