7 0.236702 0.544643 0.069149 0.410714
11 0.321809 0.535714 0.069149 0.464286
1 0.401596 0.500000 0.069149 0.428571
4 0.579787 0.491071 0.085106 0.446429
4 0.739362 0.446429 0.074468 0.428571
3 0.662234 0.473214 0.069149 0.446429
9 0.827128 0.446429 0.090426 0.464286
