7 0.237113 0.550000 0.072165 0.441176
11 0.317010 0.535294 0.067010 0.435294
9 0.400344 0.523529 0.072165 0.411765
4 0.572165 0.494118 0.072165 0.411765
2 0.646907 0.476471 0.067010 0.411765
6 0.725086 0.461765 0.061856 0.394118
1 0.805842 0.450000 0.058419 0.417647
