7 0.241304 0.505952 0.065217 0.416667
11 0.321739 0.500000 0.078261 0.428571
9 0.406522 0.505952 0.073913 0.440476
1 0.580435 0.500000 0.056522 0.428571
1 0.660870 0.517857 0.069565 0.440476
0 0.734783 0.517857 0.078261 0.440476
2 0.813043 0.529762 0.069565 0.440476
