1 0.247863 0.443038 0.051282 0.379747
11 0.318376 0.462025 0.081197 0.392405
10 0.399573 0.487342 0.072650 0.417722
0 0.574786 0.531646 0.072650 0.379747
8 0.651709 0.550633 0.064103 0.392405
8 0.726496 0.563291 0.076923 0.367089
8 0.807692 0.582278 0.068376 0.379747
