3 0.254438 0.468085 0.071006 0.425532
35 0.332840 0.478723 0.068047 0.468085
6 0.411243 0.489362 0.065089 0.446809
3 0.585799 0.489362 0.065089 0.446809
1 0.664201 0.500000 0.056213 0.446809
8 0.738166 0.510638 0.062130 0.425532
7 0.812130 0.510638 0.068047 0.446809
