8 0.175355 0.486111 0.094787 0.435185
35 0.258294 0.490741 0.080569 0.444444
24 0.336493 0.500000 0.094787 0.425926
1 0.516588 0.509259 0.075829 0.444444
2 0.604265 0.527778 0.080569 0.462963
2 0.727488 0.518519 0.090047 0.444444
3 0.815166 0.537037 0.085308 0.444444
