2 0.233247 0.459184 0.064433 0.455782
11 0.306701 0.476190 0.067010 0.448980
7 0.377577 0.493197 0.069588 0.469388
4 0.552835 0.517007 0.079897 0.489796
2 0.635309 0.527211 0.079897 0.455782
8 0.721649 0.534014 0.072165 0.455782
9 0.810567 0.544218 0.079897 0.448980
