3 0.243381 0.489726 0.075356 0.445205
3 0.400204 0.493151 0.075356 0.438356
11 0.318737 0.489726 0.075356 0.445205
8 0.567210 0.496575 0.071283 0.472603
1 0.646640 0.503425 0.059063 0.458904
4 0.724033 0.500000 0.075356 0.465753
0 0.804481 0.503425 0.073320 0.458904
