5 0.817997 0.361742 0.071719 0.390152
5 0.663058 0.426136 0.067659 0.367424
4 0.744249 0.405303 0.078484 0.378788
9 0.587957 0.464015 0.074425 0.382576
8 0.414073 0.532197 0.081191 0.382576
11 0.328823 0.566288 0.081191 0.412879
7 0.242896 0.589015 0.082544 0.443182
