4 0.237028 0.568571 0.082547 0.382857
4 0.410377 0.531429 0.080189 0.400000
4 0.654481 0.442857 0.063679 0.394286
35 0.320755 0.548571 0.080189 0.400000
2 0.581368 0.477143 0.073113 0.405714
0 0.728774 0.414286 0.070755 0.371429
7 0.800708 0.388571 0.073113 0.411429
