0 0.822134 0.365506 0.071146 0.382911
1 0.245718 0.617089 0.059289 0.424051
11 0.325428 0.590190 0.089592 0.446203
10 0.411067 0.552215 0.076416 0.427215
8 0.590250 0.473101 0.076416 0.395570
3 0.671278 0.449367 0.069829 0.405063
7 0.747036 0.398734 0.081686 0.411392
