8 0.156997 0.579208 0.081911 0.445545
11 0.249147 0.544554 0.081911 0.475248
4 0.341297 0.534653 0.088737 0.455446
1 0.551195 0.480198 0.064846 0.445545
9 0.639932 0.470297 0.078498 0.445545
8 0.825939 0.410891 0.081911 0.445545
5 0.732082 0.435644 0.085324 0.455446
