5 0.237042 0.581699 0.072061 0.385621
5 0.730088 0.416667 0.069532 0.382353
11 0.319848 0.552288 0.073325 0.385621
0 0.403919 0.534314 0.074589 0.375817
6 0.577118 0.473856 0.064475 0.359477
6 0.807206 0.390523 0.069532 0.369281
2 0.652971 0.452614 0.074589 0.388889
