3 0.240637 0.522059 0.065543 0.426471
28 0.320225 0.504902 0.074906 0.421569
8 0.398876 0.517157 0.071161 0.436275
6 0.572097 0.487745 0.069288 0.406863
8 0.647940 0.470588 0.059925 0.411765
9 0.726592 0.468137 0.063670 0.416667
9 0.806180 0.450980 0.061798 0.411765
