8 0.237981 0.464912 0.072115 0.473684
11 0.314904 0.473684 0.072115 0.456140
2 0.399038 0.500000 0.076923 0.473684
2 0.564904 0.508772 0.081731 0.456140
2 0.721154 0.535088 0.076923 0.473684
9 0.646635 0.526316 0.081731 0.456140
0 0.810096 0.552632 0.081731 0.508772
