5 0.226974 0.403774 0.072368 0.384906
11 0.304276 0.435849 0.075658 0.396226
2 0.390625 0.477358 0.074013 0.381132
3 0.566612 0.526415 0.074013 0.373585
6 0.654605 0.566038 0.082237 0.392453
1 0.744243 0.596226 0.060855 0.407547
5 0.828947 0.609434 0.088816 0.388679
