11 0.288360 0.421241 0.074074 0.384248
8 0.213624 0.400955 0.062169 0.367542
8 0.370370 0.453461 0.074074 0.381862
6 0.550265 0.510740 0.082011 0.386635
6 0.728836 0.562053 0.079365 0.398568
6 0.816138 0.585919 0.082011 0.398568
2 0.637566 0.540573 0.079365 0.417661
