8 0.242492 0.531532 0.073574 0.432432
29 0.325075 0.527027 0.073574 0.432432
4 0.407658 0.513514 0.070571 0.432432
4 0.654655 0.475225 0.075075 0.409910
3 0.575826 0.481982 0.070571 0.405405
1 0.728979 0.459459 0.055556 0.396396
8 0.800300 0.448198 0.066066 0.418919
