8 0.240050 0.523438 0.072139 0.453125
29 0.310945 0.527344 0.074627 0.476562
5 0.386816 0.519531 0.082090 0.445312
2 0.563433 0.519531 0.082090 0.460938
0 0.644279 0.511719 0.074627 0.460938
9 0.728856 0.507812 0.079602 0.453125
9 0.810945 0.507812 0.079602 0.453125
