11 0.195962 0.504464 0.073634 0.455357
22 0.281473 0.513393 0.083135 0.473214
35 0.369359 0.517857 0.073634 0.482143
0 0.534442 0.500000 0.076010 0.464286
8 0.619952 0.495536 0.080760 0.473214
1 0.741093 0.482143 0.061758 0.482143
5 0.818290 0.455357 0.073634 0.482143
