2 0.232143 0.598000 0.094538 0.388000
10 0.324580 0.560000 0.086134 0.400000
23 0.415966 0.526000 0.096639 0.412000
1 0.599790 0.460000 0.060924 0.368000
1 0.840336 0.374000 0.054622 0.372000
9 0.672269 0.434000 0.075630 0.372000
9 0.761555 0.400000 0.081933 0.384000
