6 0.557007 0.515411 0.068884 0.428082
6 0.635986 0.537671 0.079572 0.438356
4 0.236342 0.441781 0.064133 0.424658
4 0.390736 0.474315 0.076010 0.428082
4 0.810570 0.582192 0.086698 0.452055
9 0.719715 0.554795 0.073634 0.452055
11 0.306413 0.460616 0.068884 0.434932
