15 0.198063 0.503165 0.075704 0.449367
22 0.278169 0.506329 0.077465 0.455696
27 0.354754 0.512658 0.061620 0.430380
4 0.528169 0.522152 0.066901 0.436709
4 0.607394 0.534810 0.066901 0.449367
3 0.723592 0.509494 0.070423 0.411392
7 0.801056 0.515823 0.073944 0.474684
