5 0.750893 0.419476 0.080357 0.359551
6 0.239286 0.586142 0.082143 0.370787
11 0.329464 0.567416 0.083929 0.408240
2 0.413393 0.539326 0.073214 0.389513
3 0.592857 0.481273 0.064286 0.370787
4 0.669643 0.453184 0.075000 0.367041
1 0.829464 0.393258 0.055357 0.397004
