11 0.316589 0.551613 0.081776 0.406452
4 0.234813 0.561290 0.077103 0.412903
4 0.573598 0.480645 0.072430 0.406452
4 0.650701 0.461290 0.077103 0.419355
8 0.726636 0.441935 0.070093 0.406452
9 0.807243 0.412903 0.077103 0.412903
